<?xml version="1.0" encoding="utf-8"?>
<!-- Generator: Adobe Illustrator 19.0.0, SVG Export Plug-In . SVG Version: 6.00 Build 0)  -->
<svg version="1.1" id="Layer_1" xmlns="http://www.w3.org/2000/svg" xmlns:xlink="http://www.w3.org/1999/xlink" x="0px" y="0px"
	 viewBox="0 0 400 400" style="enable-background:new 0 0 400 400;" xml:space="preserve">
<path id="XMLID_47_" style="fill:#201E1D;" d="M354.3,282c-1.6-3.3-3-2.3-4.6,0c-1.8,2.8-3.4,5.7-4,9c-0.6,3-3.4,2.9-5.3,3.8
	c-1.7,0.8-1.6-1.2-2.1-2.1c-3-5.2-2.9-5.2-6.9-0.8c-5.9,6.5-12.5,12.3-20.7,16c-1.3,0.6-2.7,1.8-3.7-0.4
	c-3.4-7.4-6.7-14.9-10.2-22.5c3-0.3,5.5-0.6,8-0.7c3.7-0.2,4.4-1.5,2.7-5c-6.5-13.3-9-27.5-9.8-42.2c-0.9-18.3,1.9-36,6.9-55.2
	c2.2,11.3,4.4,21.2,6,31.1c2.1,13.1,4.4,26.1,3.2,39.5c-0.3,3.4,0.5,6.6,1.9,9.7c2.8,6.5,10,7.4,14.4,1.9c6.1-7.6,0.3-24.3-9.4-26
	c-3.2-0.5-3.6-1.8-3.9-4.3c-1.4-10-2.9-20-4.5-30c-1.6-10.1-5.4-20-6.3-30c-1-12.3-6.5-20.1-17.2-24.9c-1.1-0.5-2.9-0.8-2.5-2.6
	c0.4-1.5,1.6-2.2,3.3-2.4c8.2-0.9,15.3-4.3,20.8-10.4c1.6-1.8,3-2.9,5.7-2.9c4.5,0,8-2.7,9.3-7c1.3-4.2,1.4-8.7-3.4-11.3
	c-1.3-0.7-0.8-1.5-0.7-2.4c0.2-2.1,0.6-4.3,0.5-6.4c-0.3-3.4,0.6-5.5,3.9-7.4c6.7-3.7,6.5-8.2,0.1-12.3c-0.8-0.5-1.7-1.2-2.6-1.4
	c-6.7-1.3-7.8-6.2-8.5-11.9c-1.3-10.7-2.4-21.5-3-32.3c-0.2-3.1-1-5-4.8-4.4c-3.8,0.6-7.6,0.6-11.4,0.8c-13,0.8-25.9-0.8-38.9-0.6
	c-3.8,0.1-5.4,0.9-5.1,5.1c0.7,12.6,0.8,25.3,1.6,37.9c0.3,5.1-1,8.4-5.6,10.5c-1.6,0.7-2.9,2.2-4.2,3.5c-6.5,6.6-6.1,8.3,2.5,11
	c1.6,0.5,4.5,0.5,4.2,2.3c-0.6,3.2,1.8,6.5-0.4,9.6c-3.9,5.4-3.9,10.4,0.9,14.5c5.5,4.6,11.5,8.5,17.4,12.6c0.9,0.6,2.1,1.2,3.2,1.3
	c5.5,0.6,4,3.7,2.8,7c-0.7,1.9-2.4,2.1-3.9,2.6c-3.1,1.1-6.3,1.8-9.4,2.9c-6,2.1-6.9,4.1-4.7,10.1c0.4,1.2,0.8,2.5,1.5,3.7
	c1.3,2.5,0.5,4.9-1.4,6.2c-2.9,1.9-3.2,4.4-2.9,7.3c0.1,0.6,0.1,1.2,0,1.8c1.1,2.9,1.1,6.5,0,9.6c-1.3,13.1-2.4,25-3.6,36.8
	c-1.7,17.4-2.6,34.8,0.3,52.2c1,6.1,1.1,6,7.3,3.7c1.8,9.4,2.9,18.7,2.9,28.2c0,16.2,0,32.3,0,48.5c0,2.4-0.2,5.2,3.6,3.8
	c2.2-0.8,3.4-0.7,4,1.7c0.7,2.7-1.7,2.3-3,2.8c-8.1,3.4-16.3,6.3-23.9,10.7c-1.1,0.7-2.7,1.2-2.1,2.8c0.6,1.7,1.9,1,3.3,0.6
	c5.4-1.7,11-2.4,16.7-2.4c8.6,0,17.3,0.1,25.9-1.5c1.3-0.2,3.3,0.4,3.8-1.6c0.5-2.1-1.4-3-2.7-3.7c-3.2-1.7-6.6-3-9.9-4.4
	c-2.9-1.2-5.1-3-4.9-6.4c2.5-0.3,5-1,7.5-0.9c3.7,0.1,3.9-1.9,3.7-4.8c-1.6-24-5.8-47.7-10.2-71.3c-0.3-1.4-1.5-3.4,0-4.1
	c1.8-0.8,4.2-0.9,6,0.9c2.6,2.6,4.8,5.5,6.5,8.7c5.4,10.3,8.9,21.3,10.9,32.7c1.2,6.6,2.9,7.7,9.5,6.2c0.2,0,0.3-0.1,0.5-0.2
	c12.9-3.6,23.5-11.1,33.7-19.5c4.3-3.5,7-7,3-12.3c-1.3-1.7-0.6-2.5,1.1-3.4c1.8-0.9,2.4,0.1,2.9,1.4c3.3,9,9.7,16.5,12.2,25.9
	c0.3,1.2,0.6,2.4,2.1,2.3c1.5-0.1,1.8-1.3,1.8-2.5C362.4,309.8,361,295.5,354.3,282z M316.8,246.3c0.2-1.8-0.7-4.5,1.8-5.1
	c2.1-0.5,4.1,0.7,5.5,2.6c3.1,4.2,5.8,8.5,4.7,14.2c-0.7,3.7-2.5,6.3-6.3,6.4c-3.6,0.1-4-3.1-4.8-5.8c-0.9-2.9-0.8-5.9-0.8-8.9
	C316.8,248.6,316.7,247.4,316.8,246.3z M287.2,155.1c5.1,2.8,11.8,5.9,11.7,11.8c-0.1,6.2-7.2,9.3-12,13.1c-1.2,1-1.9,0.6-2.6-0.7
	c-2.1-4-3.4-8.3-4.5-12.7c0-0.4-0.1-1.2,0.1-1.3c4.6-2.1,3.9-6.2,4-10.1c0-0.8,0.7-1.1,1.4-0.8C286,154.5,286.7,154.7,287.2,155.1z
	 M293.8,186c0.2,1.6-0.5,3-1.2,4.2c-3.8,6.6-7.7,13.1-12.5,19c-0.4,0.9-0.6,2-1.9,2.3c-0.4-1.3,0.7-2,1.1-2.9
	c2.8-8.1,5.6-16.2,8.3-24.3c0.5-1.6,1.7-1.3,2.8-1.2C292.2,183.3,293.6,184,293.8,186z M278.4,154.4c2.3-0.1,2.6,1.5,2.4,3.7
	c-0.2,0.9,0.7,3-1.7,2.6c-1.3-0.2-3.5-0.3-3.2-2.8C276,156.1,276.2,154.5,278.4,154.4z M277.5,149.4c0.8-3.2,1.3-5.4,4.2-4.8
	c1.8,0.4,1.3,2.3,1,3.3C281.9,150.7,279.6,148.4,277.5,149.4z M311.8,124.9c-0.6,1-1,2.8-2.9,1.7c-1.5-0.9-0.4-2.1,0-3
	c2.1-4.9,2.9-10.1,3.3-15.5c0.4-4.7-1.5-5.8-5.7-5c-6.5,1.2-13.1,2.1-19.6,3.3c-7.7,1.3-15.4,1-24,0.5c11.5-3.4,22.5-2.3,33.3-3.7
	c5.6-0.7,11.2-1.4,16.6-2.7c2.8-0.7,4-0.4,3.9,2.8C316.5,110.8,315.3,118.1,311.8,124.9z M321.8,120.2c0.5,2.7-0.9,4.2-3.3,4.8
	c-1.6,0.3-2.3-0.9-1.7-2.1c1.1-2.2,0.3-5.9,3.3-6.5C321.8,116,321.9,118.7,321.8,120.2z M243.2,97.5c2.9-3.8,4.9-8.2,10.9-7.5
	c2.3,0.3,2.7-1.2,2.8-3.1c0.3-14-0.1-28-1.9-41.9c-0.8-6.3-0.5-6.9,5.9-6.9c13.8,0,27.7,0.3,41.5-0.1c4.9-0.2,6.4,2,6.4,5.9
	c0,8.3,1.2,16.5,2.2,24.7c0.8,6.4,2.3,12.7,3.8,18.9c0.4,1.7,1,4.8,3.4,4.1c3-0.9,0.4-3.3,0.4-5.1c0-0.5-0.2-0.9-0.5-2.1
	c3.7,1.5,8.2,2.3,8.1,5.7c0,3.6-4.6,4.3-7.7,5.1c-9.6,2.7-19.3,4.6-29.3,4.8c-6.1,0.1-12.2,1.2-18.4,1.1
	C261.5,101.1,252.5,100.6,243.2,97.5z M251.1,117c2,3.2,2.3,5.9,2.7,8.9C250.4,123.3,250.4,123.3,251.1,117z M269,137.5
	c-7.8-4.3-8.5-12.6-10.1-20.2c-0.3-1.4,0-3-0.1-4.5c-0.2-2.4,0.7-3.3,3.2-2.8c13.9,2.6,27.4-0.3,41-2.8c5.7-1.1,6.5-0.1,5.5,5.5
	c-1,5.5-2.8,10.5-5.8,15.2c-1.3,2-2.5,3.8-2.7,6.6c-0.2,3.6-4.3,4.6-7.4,5.5c-3,0.9-6.1,1.6-9,1.1
	C278.1,141.3,273.3,139.9,269,137.5z M276.1,164.7c1.4,6.9,4.1,13.6,7.2,20.2c0.3,0.7,0.4,1.7,0.1,2.4c-4.2,11.1-8.5,22.3-12.8,33.4
	C266.1,201.3,261.2,182.1,276.1,164.7z M263.5,157.1c0.8-0.2,1.6-0.5,2.4-0.6c2-0.4,4.3-2.4,6.1-0.9c2,1.7-1.5,3.4-1.1,5.2
	c1.3,6.2-2.7,10.4-5.4,16c-2.2-4.5-4.2-8.1-5.9-11.8C257.5,160,258.3,158.6,263.5,157.1z M257.2,178.7c2.2-1.7,4.7-0.2,7.2,0.8
	c-3.5,7.1-0.8,14-1.8,22c-2.1-6.1-4.1-11.1-5.5-16.3C256.5,183.2,255,180.4,257.2,178.7z M255.9,282.5c-2.2,0.8-2.9,0-3.1-2.2
	c-1.6-17.9-1.4-35.8,0.8-53.6c1.1-9,1.7-18,2.6-28.5c3.3,4.6,3.9,8.6,5.2,12.3c1.8,5.3,3,10.6,5.8,15.7c2.3,4.2,1,10.1,0.3,15.2
	c-1.7,11.9-2.2,23.8-1.3,35.7c0.2,2.5-0.5,3.6-2.5,3.8C261,281,258.4,281.5,255.9,282.5z M281.5,378.6c-9.5,1.1-18.6-0.5-27.6,1.2
	C262.7,375.2,271.5,370.3,281.5,378.6z M276.9,348c0,0.2,0,0.3,0.1,0.5c1.7,14.7,2.7,11.5-10.2,13.8c-3,0.5-3-0.8-3-2.8
	c0-7.5,0-15,0-20.3c0.2-18.3-0.1-34.3-2.9-50.2c-0.5-2.7-0.1-4.4,3-4.8c2.8-0.4,3.7,0.9,4.1,3.6C271,307.8,275.9,327.6,276.9,348z
	 M271.9,279.9c-1.4,0.1-1.8-1-2.1-2.3c-1.7-9.6-0.4-19.2,0.3-28.7c0.4-6.1,1.8-12.1,1.7-18.3c0-4.5,1.5-8,4.9-11.4
	c8.8-8.7,14.8-19.5,20.1-30.5c1.9-3.9-0.2-6.6-3.7-8.9c2.8-2.6,5.3-5,8.5-8c-0.8,8-2,14.8-3.6,21.7c-3.6,14.9-5.1,30.1-4.2,45.4
	c0.9,14.2,3.7,28.2,9.6,41.7C292.6,282,282.3,279.4,271.9,279.9z M338.3,308.1c-6.8,7-14.6,12.8-23.4,16.6
	c-3.7,1.6-7.1,4.1-11.4,4.8c-3.1,0.5-4.2,0.5-4.9-3.1c-2.5-12.7-5.9-25.1-12.7-36.3c-1.3-2.2-3.6-3.8-4.2-6.6c9.9-1.3,10-1.3,14,7.3
	c2.7,5.8,5.6,11.7,7.8,17.7c1.7,4.6,4.5,4.5,8.1,3.1c8.4-3.3,15-9,21.1-15.5c0.5-0.6,1.1-1.2,1.8-1.9c2.7,3.2,3.1,7.2,5.1,10.4
	C340.3,306,339.3,307.1,338.3,308.1z M357.8,313.1c-9.1-8.5-11.6-19.8-5.5-27.1C356.1,294.8,358.2,303.6,357.8,313.1z"/>
<path id="XMLID_20_" style="fill:#201E1D;" d="M186.3,381.9c-6.5-3.9-11.8-8.5-12-16.9c-0.1-3.5-2-6.5-5.5-7.6
	c-4.7-1.6-2.8-5.8-3.8-8.7c-0.5-1.5,1.3-0.8,2.1-0.8c4.3,0.4,8.6,0.9,12.9,1.2c2.6,0.2,4.2-0.6,2.2-3.4c-4.5-6.1-4.7-13.4-5-20.4
	c-0.6-14.6-0.7-29.3,0.4-43.9c1.1-13.5-0.6-26.9-2.4-40.2c-0.4-3.2-0.3-5.1,3.3-6c3.2-0.8,6.1-2.5,8.7-4.7c0.7-0.6,1.8-1.2,1.3-2.4
	c-0.5-1.2-1.6-0.9-2.6-1c-1.3,0-2.7,0.2-4-0.1c-3.2-0.8-7.4-1.3-7.8-5.1c-0.7-7.4-1.6-15.2,4-22.2c0.2,0.3,0.3,0.5,0.5,0.8
	c0.2-1.4,1-2.6,2.1-3.4c-0.5-1.4-0.8-2.8-1-4.4c-0.2-3.1-1.5-5.8-4.6-7.2c-2.5-1.2-5-2.7-7.6-3.7c-6.8-2.4-10-7.8-12.7-13.8
	c-0.5-1.2-0.8-1.8,0.9-2.3c3.7-1,7.1-2.7,10.3-4.7c0.4-0.2,1.1-1.4,1.5-0.4c1.8,4.1,3.7,1,5.3,0c9.5-5.9,16.4-22.3,14-33.3
	c-3.9-18-12.8-32.7-30.1-39.9c-6.6-2.7-10-7.5-13.6-12.3c-2.6-3.5-4.7-6.6-9.2-6.1c-4.8,0.5-7.9,3.3-10.1,7.7
	c-2.1,4.2-4.1,9.8-7.6,11.5c-12.6,6.1-20.4,16.1-26.7,27.8c-6.6,12.4-13.4,24.7-20.9,36.6C60.3,166,52,179.2,40.4,190
	c-2.9,2.7-5.9,5.1-10.5,4.3c-3.3-0.6-2.5,1.9-1.6,3.4c3.7,6.5,8.5,11.5,16.7,11.4c1.5,0,2.7-0.2,3.8,1.5
	c6.1,10.3,14.5,13.2,25.5,8.8c1.4-0.6,2-0.7,3,0.8c6.2,8.8,14.6,10.2,23.6,4.3c1.4-0.9,2.3-1.3,3.8-0.1c7.6,6,15.5,5.4,23.7,1.3
	c1.1-0.6,2.2-2.7,3.6-0.4c1,1.5,3.5,2,2.4,4.8c-1.6,4.5-2.6,9.2-5.1,13.4c-1.9,3.2-4,6.1-8.1,7.1c-1.6-6.5-5.9-10.4-12.3-11.9
	c-4.5-1.1-9.2,1-11.3,5.2c-2,4.1-1.7,8.2,1.9,11.3c5,4.4,11.5,6.4,17,3.2c6.3-3.7,13.5-7.2,16.4-15.1c1.3-3.6,2.7-7,3.9-10.6
	c0.6-1.8,1.1-2.6,3.4-2.5c5.6,0.3,9.1,4.9,7.5,10.3c-0.6,1.9-1.2,3.8-1.9,5.6c-9,24.5-20.9,47.1-39.4,66
	c-13.9,14.2-30.3,8.9-43.2,0.5c-4.5-2.9-4.5-6.4-1.5-10.7c0.9-1.3,3.6-2.6,1.5-4.4c-1.5-1.3-3.4,0.6-4.8,1.5c-8,5.4-8.9,14.6-2.2,24
	c8,11.2,20.1,14.2,32.8,16.1c8.4,1.3,17.1,0.4,26.2,2.3c-8.1,6.2-16.3,10.7-25,14.3c-1.4,0.6-3.3,0.7-2.4,2.8
	c0.7,1.7,2.4,0.8,3.5,0.4c3.1-1.1,6.2-2.6,10.3-4.3c-2.3,3.3-4,5.6-5.6,7.9c-0.6,1-2,2.3-0.3,3.4c6.2,3.8,9.6,9.9,13.3,15.9
	c0.8,1.3,1.9,2.7,3.6,2.1c2.2-0.7,0.7-2.5,0.5-3.8c-1.1-8.1-1.3-15.9,5.9-21.8c2.4-1.9,3.3-4.7,2.3-8.1c-1.3-4.4,2.2-8.6,6.9-8
	c10.2,1.2,20.4,2.6,30.6,4c1.7,0.2,2.6,1.1,2.8,2.9c0.3,2.6,0.8,5.2,1.2,7.9c-2.1-1.1-3.8-2.5-4.2,1.6c-0.8,9.2-2,18.4-5,27.3
	c-0.4,1.1-1.1,2.3,0.4,3c1.8,0.8,2.3-0.6,2.7-1.9c1.1-3.8,2.2-7.6,3.4-11.7c0.9,3.3,1.9,6.3,2.5,9.3c0.5,2.8,2.1,3.1,4.3,2.4
	c5.7-1.7,11.5-0.9,17.3-0.3c2.2,0.2,5.2,2,6.1-0.6C191.4,383.4,188,382.9,186.3,381.9z M111.6,256.4c-5.7,0-11.5-3.9-11.6-7.9
	c-0.1-4.4,2.2-6.7,6.9-6.7c5.7,0,11.1,4.9,11,9.9C117.9,256.2,114.4,255.9,111.6,256.4z M174.7,227.9c2.3,1,4.2,1.7,6.6,2.8
	c-2.3,0.9-4.3,2.4-5.8,2C174.1,232.3,174.9,229.9,174.7,227.9z M161,182.3c0.8,0.5,1.7,0.9,2.6,1.4c1.5,0.8,4.8,1.3,3.9,2.5
	c-1.4,1.8-4.1,4.6-7.1,2.4c-2.4-1.7-5-1.4-7.7-1.8c0.2-0.7,0.4-1.3,0.6-1.9C155.5,178.9,155.5,178.9,161,182.3z M176.9,138.1
	c-0.3,2.6-1.6,4-4.2,1.6c-2.9-2.7-4.9-0.9-6.4,1.5c-1.7,2.6,0.1,4,2.4,4.8c4.5,1.5,4.2,4,1.5,6.9c-14.3,15.2-34.1,13.9-48.1,0.2
	c-2.8-2.7-0.7-5.2,0.4-7.7c1-2.3,2.5-2.8,5-1.7c1.5,0.7,3.6,0.4,5.4,0.5c2.6,0.3,5.3-2.2,7.7,1.9c1.1,1.9,5.2-0.1,7.5-1.8
	c0.8-0.6,0.6-1.6-0.2-2.1c-3.1-2.3-5.6-6.2-10.3-3.1c-3.2,2.1-7.7-0.7-11.4,3.7c1.2-6.9,5.6-11.7,10.5-12.4c8-1.1,13.7-5.4,18-12
	c1.1-1.7,1-5.1,4.4-4.4c3.2,0.7,6.6,1.2,8.5,4.3c2.8,4.6,5.3,9.4,8.2,13.9C177.2,134.3,177.2,136.2,176.9,138.1z M124.1,83.2
	c1.6-2,4.1-3.1,4.1-6.7c0-3.2,4.2-2.8,6.5-3.2c1.8-0.4,4.2,0.8,5.3,3.5c1.8,4.4,7.1,6.8,7.1,12.4c0,0.8,1.3,0.9,2.1,0.9
	c10.8-0.1,17.9,6.5,23.9,14.1c7.8,9.9,12,21.2,10.3,34.2c-1.9-8-4.5-15.5-10.9-21.2c-3.2-2.8-6.8-4.8-10.8-6
	c-0.6-0.2-1.6,0.1-1.9-0.3c-5.3-5.9-5.1,0.2-6.4,2.9c-1.6,3.4-3.8,6.2-6.5,8.6c-0.9,0.8-2.2,1.2-3.2,0.4c-1.1-0.8,0.1-1.8,0.1-2.7
	c0.1-1.6,2.5-3.6,0-4.8c-2.2-1.1-3.1,1.4-4.2,2.6c-7.1,7.6-14.4,15-19.5,24.2c-2.5,4.6-4.4,9.3-2.2,15.5c-8.3-5-11.1-12.6-12.8-20.4
	c-1.6-7.3-1.2-14.9,0.8-22.2c0.4-1.6,0.7-2.8,3.2-1.5c2.7,1.4,6.5-0.3,8.1,4.3c0.4,1.2,4,0.2,4.9-2.3c1-2.6,2.2-4.4,5.7-3.3
	c2.7,0.8,5.6-0.6,6.7-3c1.2-2.8,2.2-6.2-0.8-8.8c-2-1.7-3-3.6-3.2-6.3c-0.2-3.1-3.4-4.4-5.6-5.3C121.1,87,122.3,85.4,124.1,83.2z
	 M113,106.4c6.1,0.3,6.6-1.4,2.1-5.3c-0.6-0.6-1.3-1.5-0.4-3.3c0.9,0.7,1.6,1.2,2,1.8c2.2,3,3.8,4.2,4.3-0.9
	c0.1-1.1,0.7-2.5,2.3-2.9c0.7-0.2,1.4-1.1,2.2-0.4c0.7,0.7,0.5,1.6,0.1,2.3c-1.8,3.5-3.3,6.7,3.2,4.4c1.1-0.4,2.4-0.1,2.9,1.3
	c0.6,1.6,0.5,3.3-0.7,4.7c-1.4,1.5-3.1,1.4-4.5,0.2c-3-2.7-6.3-3.3-9.8-1.3c-1.2,0.7-2.1,2.1-3.2,3c-0.7,0.6-1.6,1.3-2.7,0.5
	c-0.7-0.5-1.1-1.2-1-2.1c0.2-1.1,1.2-1.5,2.2-1.8C112.4,106.5,112.7,106.4,113,106.4z M135.8,224.6c-3.1-5.4-5.8-4.2-9.6-1.6
	c-6.6,4.4-14.8,3.3-20.9-2.3c-1.9-1.7-2.8-2.3-5.1,0c-7.1,7.5-19.7,4.5-21.3-5.4c-0.6-3.7-1.5-2.7-3.6-0.8
	c-7.5,7.1-21.3,3.4-24.1-6.6c-0.8-2.8-1.3-3.4-4.2-2.4c-4.5,1.5-10.8-1.4-13.5-5.4c-0.8-1.2-1.2-2.1,0.4-2.7
	c12.6-4.7,18.7-16,26-25.9c13.1-17.8,23.5-37.2,33.8-56.7c3.7-7,8.1-13.3,14.6-17.9c0.7-0.5,1.2-1.2,2.3-0.6c0.5,1.9-1.2,2.8-2,4.2
	c-8.6,14.9-10.4,30.5-4,46.7c4,10.1,11.3,16,22.8,15.9c5.6,0,10.5,4.1,16.2,3.7c3.1-0.2,4.3,1.2,5.4,3.7c2.5,6.3,0.8,15.6-4.7,19
	c-3.4,2.2-4.2,5-4.7,8.4C138.6,206.5,137.2,215,135.8,224.6z M148.6,226.9c0.5-0.9,0.6-2.1-0.4-2.7c-1-0.6-1.8,0.2-2.5,1
	c-1.7,2-4.2,2.7-6.2,1.4c-1.7-1.1-0.3-3.3,0-5.1c1.3-8,2.4-16,3.6-24.1c10,11.7,12.1,23.3,6.2,34.2
	C147.3,230.4,147.7,228.7,148.6,226.9z M117.8,353.7c-1.1,2.2-2.4,4.3-4.1,6.1c-3.5,3.8-5.4,8.2-4.7,14.9c-2.2-2.8-3.5-4.6-5-6.3
	c-5-5.5-5-5.5-0.2-10.9c2.5-2.8,5.2-5.5,7.8-8.3c1.4-1.5,2.9-2.2,4.7-0.6C118,350,119,351.4,117.8,353.7z M152,341.9
	c-17.3-2.5-34.6-4.2-52-5.3c-9.1-0.5-18.2-1-26.8-4.6c-9.2-3.9-16-9.8-18-20.1c-0.2-0.9-0.6-2,0.6-2.6c10.9,16.5,37.1,20,51.1,6.8
	c9.2-8.7,17.3-18.4,23.6-29.4c10.3-17.9,18.9-36.7,23.6-57c2.3-10.1,3.5-19.9-4.7-28.5c-1.8-1.9-4.6-5-1.1-8.2c4-3.6,7.1-4,11-0.6
	c2,1.8,3.1,1.6,5,0.1c1.4-1.1,3.1-1.9,4.8-2.6c1.9-0.8,4-2.4,6-0.7c1.7,1.5,0.8,3.8,0.7,5.7c0,0.8-0.3,1.7-0.8,2.3
	c-6.3,9.9-5.2,20.8-4,31.7c2.4,21.1,3.4,42.3,2.9,63.6c-0.3,13.8-0.9,27.6,0.8,41.4c0.5,3.8,1.6,7.4,2.9,11.2
	C168.8,345.5,160.5,343.1,152,341.9z M168.3,383c-1.9,0.3-2.8-0.6-3.2-2.2c-1.6-5.8-2.1-11.7-2.9-17.6c-0.2-1.9,1.1-2.7,2.6-3
	c1.8-0.4,3.8-0.6,4.7,1.6c0.9,2.1,1.9,4.3,2.2,6.5c0.8,5.1,2.7,9.5,7.9,13.3C175.1,382.2,171.7,382.5,168.3,383z"/>
<path id="XMLID_196_" style="fill:#FBFBFB;" d="M110.7,96.4c0.5,1.9-1.2,2.8-2,4.2c-8.6,14.9-10.4,30.5-4,46.7
	c4,10.1,11.3,16,22.8,15.9c5.6,0,10.5,4.1,16.2,3.7c3.1-0.2,4.3,1.2,5.4,3.7c2.5,6.3,0.8,15.6-4.7,19c-3.4,2.2-4.2,5-4.7,8.4
	c-1.3,8.5-2.6,17-4,26.5c-3.1-5.4-5.8-4.2-9.6-1.6c-6.6,4.4-14.8,3.3-20.9-2.3c-1.9-1.7-2.8-2.3-5.1,0c-7.1,7.5-19.7,4.5-21.3-5.4
	c-0.6-3.7-1.5-2.7-3.6-0.8c-7.5,7.1-21.3,3.4-24.1-6.6c-0.8-2.8-1.3-3.4-4.2-2.4c-4.5,1.5-10.8-1.4-13.5-5.4
	c-0.8-1.2-1.2-2.1,0.4-2.7c12.6-4.7,18.7-16,26-25.9c13.1-17.8,23.5-37.2,33.8-56.7c3.7-7,8.1-13.3,14.6-17.9
	C109.1,96.5,109.6,95.8,110.7,96.4z"/>
<path id="XMLID_195_" style="fill:#FBFBFB;" d="M177.6,345.1c-8.8,0.4-17.1-2-25.6-3.2c-17.3-2.5-34.6-4.2-52-5.3
	c-9.1-0.5-18.2-1-26.8-4.6c-9.2-3.9-16-9.8-18-20.1c-0.2-0.9-0.6-2,0.6-2.6c10.9,16.5,37.1,20,51.1,6.8c9.2-8.7,17.3-18.4,23.6-29.4
	c10.3-17.9,18.9-36.7,23.6-57c2.3-10.1,3.5-19.9-4.7-28.5c-1.8-1.9-4.6-5-1.1-8.2c4-3.6,7.1-4,11-0.6c2,1.8,3.1,1.6,5,0.1
	c1.4-1.1,3.1-1.9,4.8-2.6c1.9-0.8,4-2.4,6-0.7c1.7,1.5,0.8,3.8,0.7,5.7c0,0.8-0.3,1.7-0.8,2.3c-6.3,9.9-5.2,20.8-4,31.7
	c2.4,21.1,3.4,42.3,2.9,63.6c-0.3,13.8-0.9,27.6,0.8,41.4C175.2,337.7,176.3,341.3,177.6,345.1z"/>
<path id="XMLID_194_" style="fill:#3A484B;" d="M318,84.4c3.7,1.5,8.2,2.3,8.1,5.7c0,3.6-4.6,4.3-7.7,5.1
	c-9.6,2.7-19.3,4.6-29.3,4.8c-6.1,0.1-12.2,1.2-18.4,1.1c-9.2,0-18.2-0.6-27.5-3.7c2.9-3.8,4.9-8.2,10.9-7.5
	c2.3,0.3,2.7-1.2,2.8-3.1c0.3-14-0.1-28-1.9-41.9c-0.8-6.3-0.5-6.9,5.9-6.9c13.8,0,27.7,0.3,41.5-0.1c4.9-0.2,6.4,2,6.4,5.9
	c0,8.3,1.2,16.5,2.2,24.7c0.8,6.4,2.3,12.7,3.8,18.9c0.4,1.7,1,4.8,3.4,4.1c3-0.9,0.4-3.3,0.4-5.1C318.5,86,318.3,85.6,318,84.4z"/>
<path id="XMLID_193_" style="fill:#BD886D;" d="M183.4,138.3c-1.9-8-4.5-15.5-10.9-21.2c-3.2-2.8-6.8-4.8-10.8-6
	c-0.6-0.2-1.6,0.1-1.9-0.3c-5.3-5.9-5.1,0.2-6.4,2.9c-1.6,3.4-3.8,6.2-6.5,8.6c-0.9,0.8-2.2,1.2-3.2,0.4c-1.1-0.8,0.1-1.8,0.1-2.7
	c0.1-1.6,2.5-3.6,0-4.8c-2.2-1.1-3.1,1.4-4.2,2.6c-7.1,7.6-14.4,15-19.5,24.2c-2.5,4.6-4.4,9.3-2.2,15.5c-8.3-5-11.1-12.6-12.8-20.4
	c-1.6-7.3-1.2-14.9,0.8-22.2c0.4-1.6,0.7-2.8,3.2-1.5c2.7,1.4,6.5-0.3,8.1,4.3c0.4,1.2,4,0.2,4.9-2.3c1-2.6,2.2-4.4,5.7-3.3
	c2.7,0.8,5.6-0.6,6.7-3c1.2-2.8,2.2-6.2-0.8-8.8c-2-1.7-3-3.6-3.2-6.3c-0.2-3.1-3.4-4.4-5.6-5.3c-3.9-1.7-2.6-3.3-0.9-5.5
	c1.6-2,4.1-3.1,4.1-6.7c0-3.2,4.2-2.8,6.5-3.2c1.8-0.4,4.2,0.8,5.3,3.5c1.8,4.4,7.1,6.8,7.1,12.4c0,0.8,1.3,0.9,2.1,0.9
	c10.8-0.1,17.9,6.5,23.9,14.1C180.9,114,185.1,125.3,183.4,138.3z"/>
<path id="XMLID_192_" style="fill:#3A484B;" d="M293.2,179.9c2.8-2.6,5.3-5,8.5-8c-0.8,8-2,14.8-3.6,21.7
	c-3.6,14.9-5.1,30.1-4.2,45.4c0.9,14.2,3.7,28.2,9.6,41.7c-10.9,1.4-21.2-1.3-31.6-0.7c-1.4,0.1-1.8-1-2.1-2.3
	c-1.7-9.6-0.4-19.2,0.3-28.7c0.4-6.1,1.8-12.1,1.7-18.3c0-4.5,1.5-8,4.9-11.4c8.8-8.7,14.8-19.5,20.1-30.5
	C298.8,184.9,296.7,182.2,293.2,179.9z"/>
<path id="XMLID_191_" style="fill:#F6C095;" d="M126.4,142.9c1.2-6.9,5.6-11.7,10.5-12.4c8-1.1,13.7-5.4,18-12
	c1.1-1.7,1-5.1,4.4-4.4c3.2,0.7,6.6,1.2,8.5,4.3c2.8,4.6,5.3,9.4,8.2,13.9c1.2,1.9,1.2,3.8,0.9,5.7c-0.3,2.6-1.6,4-4.2,1.6
	c-2.9-2.7-4.9-0.9-6.4,1.5c-1.7,2.6,0.1,4,2.4,4.8c4.5,1.5,4.2,4,1.5,6.9c-14.3,15.2-34.1,13.9-48.1,0.2c-2.8-2.7-0.7-5.2,0.4-7.7
	c1-2.3,2.5-2.8,5-1.7c1.5,0.7,3.6,0.4,5.4,0.5c2.6,0.3,5.3-2.2,7.7,1.9c1.1,1.9,5.2-0.1,7.5-1.8c0.8-0.6,0.6-1.6-0.2-2.1
	c-3.1-2.3-5.6-6.2-10.3-3.1C134.6,141.3,130.1,138.5,126.4,142.9z"/>
<path id="XMLID_187_" style="fill:#F6C095;" d="M283.6,141c-5.4,0.2-10.3-1.2-14.6-3.5c-7.8-4.3-8.5-12.6-10.1-20.2
	c-0.3-1.4,0-3-0.1-4.5c-0.2-2.4,0.7-3.3,3.2-2.8c13.9,2.6,27.4-0.3,41-2.8c5.7-1.1,6.5-0.1,5.5,5.5c-1,5.5-2.8,10.5-5.8,15.2
	c-1.3,2-2.5,3.8-2.7,6.6c-0.2,3.6-4.3,4.6-7.4,5.5C289.6,140.8,286.4,141.5,283.6,141z M292.7,119.9c1.5,0,2.5,0,3.5,0
	c1,0,2.5,0.6,2.6-1.2c0.1-1.7-1.1-2.3-2.5-2.5c-1-0.2-2-0.3-3-0.1c-2.3,0.5-6.5-1.6-6.3,2.4C287.1,121.8,291.3,118.4,292.7,119.9z
	 M269.1,119.3c2.2,0.5,3.3,0.3,3.5-1.2c0.1-1.1-0.7-1.7-1.8-2c-2.7-0.7-5.5-1-8.3-0.1c-1.3,0.4-2.2,0.9-1.8,2.4
	c0.3,1.2,1.3,1.1,2.4,1C265.5,119.1,267.8,119.3,269.1,119.3z"/>
<path id="XMLID_186_" style="fill:#3A484B;" d="M256.3,198.1c3.3,4.6,3.9,8.6,5.2,12.3c1.8,5.3,3,10.6,5.8,15.7
	c2.3,4.2,1,10.1,0.3,15.2c-1.7,11.9-2.2,23.8-1.3,35.7c0.2,2.5-0.5,3.6-2.5,3.8c-2.7,0.2-5.3,0.7-7.8,1.7c-2.2,0.8-2.9,0-3.1-2.2
	c-1.6-17.9-1.4-35.8,0.8-53.6C254.7,217.7,255.3,208.6,256.3,198.1z"/>
<path id="XMLID_185_" style="fill:#3A484B;" d="M334.4,294.2c2.7,3.2,3.1,7.2,5.1,10.4c0.8,1.4-0.2,2.5-1.2,3.5
	c-6.8,7-14.6,12.8-23.4,16.6c-3.7,1.6-7.1,4.1-11.4,4.8c-3.1,0.5-4.2,0.5-4.9-3.1c-2.5-12.7-5.9-25.1-12.7-36.3
	c-1.3-2.2-3.6-3.8-4.2-6.6c9.9-1.3,10-1.3,14,7.3c2.7,5.8,5.6,11.7,7.8,17.7c1.7,4.6,4.5,4.5,8.1,3.1c8.4-3.3,15-9,21.1-15.5
	C333.2,295.6,333.7,295,334.4,294.2z"/>
<path id="XMLID_184_" style="fill:#3A484B;" d="M263.8,339.2c0.2-18.3-0.1-34.3-2.9-50.2c-0.5-2.7-0.1-4.4,3-4.8
	c2.8-0.4,3.7,0.9,4.1,3.6c3.1,20.1,8,39.8,9,60.2c0,0.2,0,0.3,0.1,0.5c1.7,14.7,2.7,11.5-10.2,13.8c-3,0.5-3-0.8-3-2.8
	C263.8,352,263.8,344.5,263.8,339.2z"/>
<path id="XMLID_183_" style="fill:#BD886D;" d="M270.7,220.7c-4.6-19.4-9.4-38.6,5.4-56c1.4,6.9,4.1,13.6,7.2,20.2
	c0.3,0.7,0.4,1.7,0.1,2.4C279.2,198.5,275,209.6,270.7,220.7z"/>
<path id="XMLID_182_" style="fill:#6D8082;" d="M279.9,166.5c0-0.4-0.1-1.2,0.1-1.3c4.6-2.1,3.9-6.2,4-10.1c0-0.8,0.7-1.1,1.4-0.8
	c0.6,0.2,1.3,0.4,1.8,0.8c5.1,2.8,11.8,5.9,11.7,11.8c-0.1,6.2-7.2,9.3-12,13.1c-1.2,1-1.9,0.6-2.6-0.7
	C282.3,175.2,281,171,279.9,166.5z"/>
<path id="XMLID_181_" style="fill:#FBFBFB;" d="M149.3,231.7c-2-1.4-1.6-3-0.7-4.8c0.5-0.9,0.6-2.1-0.4-2.7c-1-0.6-1.8,0.2-2.5,1
	c-1.7,2-4.2,2.7-6.2,1.4c-1.7-1.1-0.3-3.3,0-5.1c1.3-8,2.4-16,3.6-24.1C153,209.3,155.1,220.8,149.3,231.7z"/>
<path id="XMLID_180_" style="fill:#F6C095;" d="M316.8,249.8c0-1.2-0.1-2.3,0-3.5c0.2-1.8-0.7-4.5,1.8-5.1c2.1-0.5,4.1,0.7,5.5,2.6
	c3.1,4.2,5.8,8.5,4.7,14.2c-0.7,3.7-2.5,6.3-6.3,6.4c-3.6,0.1-4-3.1-4.8-5.8C316.8,255.7,316.8,252.7,316.8,249.8z"/>
<path id="XMLID_179_" style="fill:#BD886D;" d="M263,106.9c11.5-3.4,22.5-2.3,33.3-3.7c5.6-0.7,11.2-1.4,16.6-2.7
	c2.8-0.7,4-0.4,3.9,2.8c-0.4,7.5-1.5,14.8-5,21.6c-0.6,1-1,2.8-2.9,1.7c-1.5-0.9-0.4-2.1,0-3c2.1-4.9,2.9-10.1,3.3-15.5
	c0.4-4.7-1.5-5.8-5.7-5c-6.5,1.2-13.1,2.1-19.6,3.3C279.3,107.7,271.5,107.3,263,106.9z"/>
<path id="XMLID_178_" style="fill:#FBFBFB;" d="M109,374.7c-2.2-2.8-3.5-4.6-5-6.3c-5-5.5-5-5.5-0.2-10.9c2.5-2.8,5.2-5.5,7.8-8.3
	c1.4-1.5,2.9-2.2,4.7-0.6c1.6,1.4,2.7,2.8,1.5,5.1c-1.1,2.2-2.4,4.3-4.1,6.1C110.2,363.7,108.3,368.1,109,374.7z"/>
<path id="XMLID_177_" style="fill:#FBFBFB;" d="M179.7,381.7c-4.5,0.5-8,0.8-11.3,1.4c-1.9,0.3-2.8-0.6-3.2-2.2
	c-1.6-5.8-2.1-11.7-2.9-17.6c-0.2-1.9,1.1-2.7,2.6-3c1.8-0.4,3.8-0.6,4.7,1.6c0.9,2.1,1.9,4.3,2.2,6.5
	C172.5,373.5,174.4,377.9,179.7,381.7z"/>
<path id="XMLID_176_" style="fill:#F6C095;" d="M111.6,256.4c-5.7,0-11.5-3.9-11.6-7.9c-0.1-4.4,2.2-6.7,6.9-6.7
	c5.7,0,11.1,4.9,11,9.9C117.9,256.2,114.4,255.9,111.6,256.4z"/>
<path id="XMLID_175_" style="fill:#6D8082;" d="M265.5,176.7c-2.2-4.5-4.2-8.1-5.9-11.8c-2.1-4.9-1.3-6.3,3.9-7.8
	c0.8-0.2,1.6-0.5,2.4-0.6c2-0.4,4.3-2.4,6.1-0.9c2,1.7-1.5,3.4-1.1,5.2C272.1,166.9,268.2,171.1,265.5,176.7z"/>
<path id="XMLID_174_" style="fill:#BD886D;" d="M114.7,97.8c0.9,0.7,1.6,1.2,2,1.8c2.2,3,3.8,4.2,4.3-0.9c0.1-1.1,0.7-2.5,2.3-2.9
	c0.7-0.2,1.4-1.1,2.2-0.4c0.7,0.7,0.5,1.6,0.1,2.3c-1.8,3.5-3.3,6.7,3.2,4.4c1.1-0.4,2.4-0.1,2.9,1.3c0.6,1.6,0.5,3.3-0.7,4.7
	c-1.4,1.5-3.1,1.4-4.5,0.2c-3-2.7-6.3-3.3-9.8-1.3c-1.2,0.7-2.1,2.1-3.2,3c-0.7,0.6-1.6,1.3-2.7,0.5c-0.7-0.5-1.1-1.2-1-2.1
	c0.2-1.1,1.2-1.5,2.2-1.8c0.3-0.1,0.7-0.2,1-0.2c6.1,0.3,6.6-1.4,2.1-5.3C114.5,100.5,113.8,99.6,114.7,97.8z"/>
<path id="XMLID_173_" style="fill:#3A484B;" d="M352.3,286c3.8,8.8,6,17.6,5.5,27.1C348.7,304.6,346.2,293.4,352.3,286z"/>
<path id="XMLID_172_" style="fill:#6D8082;" d="M279.3,208.6c2.8-8.1,5.6-16.2,8.3-24.3c0.5-1.6,1.7-1.3,2.8-1.2
	c1.8,0.2,3.2,0.9,3.4,2.9c0.2,1.6-0.5,3-1.2,4.2c-3.8,6.6-7.7,13.1-12.5,19C279.8,209.1,279.6,208.8,279.3,208.6z"/>
<path id="XMLID_171_" style="fill:#6D8082;" d="M264.4,179.5c-3.5,7.1-0.8,14-1.8,22c-2.1-6.1-4.1-11.1-5.5-16.3
	c-0.6-2.1-2-4.8,0.1-6.6C259.4,177,261.9,178.5,264.4,179.5z"/>
<path id="XMLID_170_" style="fill:#3A484B;" d="M253.8,379.8c8.8-4.6,17.6-9.6,27.6-1.2C272,379.7,262.8,378.1,253.8,379.8z"/>
<path id="XMLID_169_" style="fill:#F6C095;" d="M152.6,186.8c0.2-0.7,0.4-1.3,0.6-1.9c2.3-6,2.3-6,7.8-2.6c0.8,0.5,1.7,0.9,2.6,1.4
	c1.5,0.7,4.8,1.3,3.9,2.5c-1.4,1.8-4.1,4.6-7.1,2.4C157.9,186.9,155.3,187.2,152.6,186.8z"/>
<path id="XMLID_166_" style="fill:#F6C095;" d="M321.8,120.2c0.5,2.7-0.9,4.2-3.3,4.8c-1.6,0.3-2.3-0.9-1.7-2.1
	c1.1-2.2,0.3-5.9,3.3-6.5C321.8,116,321.9,118.7,321.8,120.2z"/>
<path id="XMLID_165_" style="fill:#BD886D;" d="M280.8,158.1c-0.2,0.9,0.7,3-1.7,2.6c-1.3-0.2-3.5-0.3-3.2-2.8
	c0.2-1.7,0.4-3.4,2.6-3.5C280.7,154.3,281,155.9,280.8,158.1z"/>
<path id="XMLID_164_" style="fill:#FBFBFB;" d="M277.5,149.4c0.8-3.2,1.3-5.4,4.2-4.8c1.8,0.4,1.3,2.3,1,3.3
	C281.9,150.7,279.6,148.4,277.5,149.4z"/>
<path id="XMLID_163_" style="fill:#FBFBFB;" d="M174.7,227.9c2.3,1,4.2,1.7,6.6,2.8c-2.3,0.9-4.3,2.4-5.8,2
	C174.1,232.3,174.9,229.9,174.7,227.9z"/>
<path id="XMLID_162_" style="fill:#F6C095;" d="M251.1,117c2,3.2,2.3,5.9,2.7,8.9C250.4,123.3,250.4,123.3,251.1,117z"/>
<path id="XMLID_161_" style="fill:#6D8082;" d="M280.1,209.3c-0.4,0.9-0.6,2-1.9,2.3c-0.4-1.3,0.7-2,1.1-2.9
	C279.6,208.8,279.8,209.1,280.1,209.3z"/>
<path id="XMLID_159_" style="fill:#201E1D;" d="M292.7,119.9c-1.3-1.5-5.5,1.8-5.7-1.5c-0.1-3.9,4.1-1.8,6.3-2.4
	c0.9-0.2,2-0.1,3,0.1c1.4,0.2,2.6,0.8,2.5,2.5c-0.2,1.9-1.6,1.2-2.6,1.2C295.2,120,294.2,119.9,292.7,119.9z"/>
<path id="XMLID_158_" style="fill:#201E1D;" d="M269.1,119.3c-1.4,0-3.7-0.1-6,0.1c-1.1,0.1-2.1,0.2-2.4-1c-0.4-1.4,0.5-1.9,1.8-2.4
	c2.8-0.9,5.5-0.6,8.3,0.1c1.1,0.3,1.9,0.9,1.8,2C272.5,119.6,271.3,119.7,269.1,119.3z"/>
<path id="XMLID_1_" style="fill:none;stroke:#201E1D;stroke-width:3.2;stroke-miterlimit:10;" d="M178,193.9c0,0,4.2,23.2,35.7,11.8
	"/>
<path id="XMLID_2_" style="fill:none;stroke:#201E1D;stroke-width:3.2;stroke-miterlimit:10;" d="M254.5,187.2
	c0,0-20.6,16.9-30.5,16.9"/>
<path id="XMLID_4_" style="fill:#F6C095;stroke:#201E1D;stroke-width:3.2;stroke-miterlimit:10;" d="M203,203.1
	c3.4-4.6,10-6.8,13.2-4.5c3.6,2.6,4,5.8,1.2,9.6c-3.4,4.6-10.6,6-14.6,2.9C199.4,208.3,201.7,205.7,203,203.1z"/>
<path id="XMLID_5_" style="fill:#F6C095;stroke:#201E1D;stroke-width:3.2;stroke-miterlimit:10;" d="M211.2,203.1
	c3.4-4.6,10-6.8,13.2-4.5c3.6,2.6,4,5.8,1.2,9.6c-3.4,4.6-10.6,6-14.6,2.9C207.6,208.3,209.9,205.7,211.2,203.1z"/>
</svg>
