<?xml version="1.0" encoding="utf-8"?>
<!-- Generator: Adobe Illustrator 19.0.0, SVG Export Plug-In . SVG Version: 6.00 Build 0)  -->
<svg version="1.1" id="Capa_1" xmlns="http://www.w3.org/2000/svg" xmlns:xlink="http://www.w3.org/1999/xlink" x="0px" y="0px"
	 viewBox="-24 26 50 50" style="enable-background:new -24 26 50 50;" xml:space="preserve">
<path style="fill:#C03A2B;" d="M0.9,36.1c2-4.8,6.6-8.1,12-8.1c7.2,0,12.4,6.2,13.1,13.5c0,0,0.4,1.8-0.4,5.1
	c-1.1,4.5-3.5,8.5-6.9,11.5L0.9,74l-17.4-15.8c-3.4-3-5.8-7-6.9-11.5c-0.8-3.3-0.4-5.1-0.4-5.1c0.7-7.4,5.9-13.5,13.1-13.5
	C-5.5,28-1.2,31.3,0.9,36.1z"/>
</svg>
