<?xml version="1.0" encoding="utf-8"?>
<!-- Generator: Adobe Illustrator 19.0.0, SVG Export Plug-In . SVG Version: 6.00 Build 0)  -->
<svg version="1.1" id="Layer_1" xmlns="http://www.w3.org/2000/svg" xmlns:xlink="http://www.w3.org/1999/xlink" x="0px" y="0px"
	 viewBox="0 0 100 100" style="enable-background:new 0 0 100 100;" xml:space="preserve">
<g>
	<path style="fill:#DD234A;" d="M94.8,49.1c0.1,0.3,0.1,0.7,0.1,1c0.1,1.1-0.2,2.5-1.4,3.7h-0.3c0,0,2.9,4.1-1.3,7.4
		c0,0,3,4.7-2.1,7.4c0,0,1.1,5.6-4.4,6.5c0,0,1.6,5.7-4.8,6.9c0,0-0.3,4.4-5.6,4.8c0,0-0.8,4.6-6.3,3.7c0,0-1.3,4-6.5,2.6
		c0,0-2.6,3.9-6.8,1.5c0,0-3.3,3.7-6.9,0.3c0,0-4.2,3-7.3-1.2c0,0-4.2,3-7-2.3c0,0-4.3,2.3-6.8-2.8c0,0-4,1.2-5.9-4.4
		c0,0-4.5,0.3-4.9-5.1c0,0-3.7,0.5-4.1-5.5c0,0-4.1-0.9-3.2-6.4c0,0-4.3-2.7-1.8-7c0,0-3.7-2.8-1.3-6.9c-0.4-0.5-1.2-1.6-1.2-3
		c0-0.4,0-0.7,0-1.1H0v51.1h100V49.1H94.8z"/>
	<path style="fill:#DD234A;" d="M7.4,53.4L7,53.8L7.4,53.4L7.4,53.4L7,53.8L7.4,53.4c0,0-0.1-0.1-0.2-0.2c-0.2-0.2-0.4-0.5-0.6-0.9
		c-0.2-0.4-0.3-0.9-0.3-1.4c0-0.8,0.3-1.8,1.4-3.1l0.6-0.6l-0.5-0.7l0,0l0,0l0,0l0,0l0,0C7.8,46.5,7,45.3,7.1,44
		c0-0.5,0.1-1.1,0.4-1.6c0.3-0.6,0.7-1.2,1.5-1.8L9.6,40l-0.5-0.8l0,0c-0.1-0.1-0.7-1.2-0.7-2.5c0-0.6,0.1-1.1,0.5-1.7
		c0.3-0.6,0.9-1.2,1.9-1.7l0.7-0.3l-0.1-0.7L11,32.4l0.4-0.1l0,0L11,32.4l0.4-0.1c0,0-0.1-0.4-0.1-0.9c0-0.7,0.1-1.7,0.6-2.5
		c0.2-0.4,0.6-0.8,1-1.1c0.5-0.3,1.1-0.6,1.9-0.7l1.1-0.2l-0.3-1.1l-0.3,0.1l0.3-0.1l0,0l-0.3,0.1l0.3-0.1c0,0-0.1-0.5-0.1-1.2
		c0-0.7,0.2-1.7,0.7-2.4c0.5-0.8,1.5-1.5,3.4-1.9l0.8-0.1l0.1-0.8l-0.3,0l0.3,0l0,0l-0.3,0l0.3,0c0,0,0.1-1,0.7-1.9
		c0.3-0.4,0.7-0.9,1.3-1.2c0.6-0.4,1.4-0.6,2.6-0.7l0.8,0l0.1-0.8l-0.4-0.1l0.4,0.1l0,0l-0.4-0.1l0.4,0.1c0,0,0.2-0.8,0.7-1.5
		c0.3-0.4,0.7-0.7,1.2-1c0.5-0.3,1.2-0.4,2.1-0.4c0.4,0,0.8,0,1.2,0.1l0.8,0.1l0.3-0.8l-0.5-0.2l0.5,0.2l0,0l-0.5-0.2l0.5,0.2
		c0,0,0-0.1,0.2-0.4c0.2-0.3,0.5-0.8,1-1.1c0.5-0.4,1.2-0.7,2.3-0.7c0.5,0,1.1,0.1,1.8,0.3l0.7,0.2l0.4-0.6l-0.3-0.2l0.3,0.2l0,0
		l-0.3-0.2l0.3,0.2c0,0,0.3-0.5,0.9-1c0.6-0.5,1.4-0.9,2.3-0.9c0.6,0,1.3,0.2,2.2,0.7L44.8,8l0.5-0.6l-0.3-0.2l0.3,0.3l0,0l-0.3-0.2
		l0.3,0.3c0,0,0.4-0.4,0.9-0.7c0.6-0.4,1.3-0.7,2-0.7c0.7,0,1.5,0.2,2.4,1.1l0.6,0.6L52,7.2l0,0c0.1-0.1,1.3-0.9,2.7-0.9
		c0.5,0,1,0.1,1.6,0.4c0.5,0.3,1.1,0.7,1.7,1.5L58.5,9l0.8-0.6L58.9,8l0.3,0.5l0,0L58.9,8l0.3,0.5l0,0c0.2-0.1,1.1-0.6,2.1-0.6
		c0.5,0,1,0.1,1.6,0.5c0.6,0.4,1.2,1,1.8,2.1l0.5,0.9l0.9-0.5L66,10.5l0.1,0.2l0,0L66,10.5l0.1,0.2c0,0,0.8-0.4,1.8-0.4
		c0.6,0,1.2,0.1,1.8,0.5c0.6,0.4,1.3,1,1.8,2.2l0.4,0.8l0.8-0.2l-0.1-0.4l0.1,0.4l0,0l-0.1-0.4l0.1,0.4c0,0,0.3-0.1,0.6-0.1
		c0.5,0,1.2,0.1,1.9,0.6c0.7,0.5,1.5,1.4,2.1,3.2l0.2,0.7l0.8-0.1l0,0l0.1,0c0.3,0,1.2,0.1,2,0.6c0.4,0.3,0.8,0.6,1.1,1.2
		c0.3,0.5,0.6,1.3,0.6,2.4l0.1,1.1l1.1-0.1l-0.1-0.5l0.1,0.6l0,0l-0.1-0.5l0.1,0.6l0.1,0c0.2,0,0.8,0.1,1.4,0.6
		c0.3,0.3,0.6,0.7,0.9,1.3c0.3,0.6,0.5,1.5,0.6,2.7l0,0.8l0.7,0.2l0,0l0,0l0,0l0,0l0,0c0.1,0,0.8,0.2,1.3,0.8
		c0.3,0.3,0.6,0.6,0.8,1.1c0.2,0.5,0.4,1.1,0.4,1.9c0,0.4,0,0.9-0.1,1.4l-0.1,0.7l0.6,0.4l0.2-0.2l-0.2,0.2l0,0l0.2-0.2l-0.2,0.2
		c0,0,0.6,0.4,1.1,1c0.5,0.6,1,1.5,1,2.4c0,0.6-0.2,1.3-0.6,2.1L90.8,41l0.7,0.5l0.2-0.3l-0.2,0.3l0,0l0.2-0.3l-0.2,0.3
		c0,0,0.5,0.4,0.9,1c0.4,0.6,0.8,1.4,0.8,2.4c0,0.7-0.2,1.4-0.7,2.4l-0.4,0.6l0.4,0.6l0.3-0.3l-0.3,0.3l0,0l0.3-0.3l-0.3,0.3
		c0,0,0.3,0.3,0.5,0.9c0.3,0.5,0.5,1.2,0.5,1.9c0,0.8-0.2,1.6-1.1,2.5l1.4,1.4c1.2-1.2,1.7-2.7,1.7-3.9c0-1.2-0.4-2.2-0.7-2.9
		c-0.3-0.7-0.7-1.1-0.7-1.2l-0.8,0.6l0.9,0.5c0.7-1.2,1-2.4,1-3.4c0-1.5-0.6-2.8-1.2-3.6c-0.6-0.8-1.2-1.3-1.2-1.3l-0.6,0.8l0.9,0.5
		c0.6-1.1,0.9-2.1,0.9-3.1c0-1.7-0.8-3-1.5-3.8c-0.7-0.8-1.4-1.3-1.5-1.3l-0.5,0.8l1,0.2c0.1-0.6,0.2-1.2,0.2-1.8
		c0-1.1-0.2-2.1-0.6-2.9c-0.6-1.2-1.4-1.9-2.1-2.3c-0.7-0.4-1.3-0.5-1.3-0.5l-0.2,1l1-0.1c-0.1-1.4-0.3-2.5-0.7-3.4
		c-0.5-1.3-1.4-2.2-2.2-2.6c-0.8-0.4-1.5-0.5-1.9-0.5c-0.2,0-0.3,0-0.3,0l0.1,1l1-0.1c-0.1-1.3-0.4-2.4-0.9-3.2
		c-0.7-1.3-1.8-2-2.7-2.3C79.6,16,78.8,16,78.4,16c-0.1,0-0.2,0-0.2,0l0.1,1l0.9-0.3c-0.7-2.1-1.7-3.4-2.8-4.2c-1.1-0.8-2.2-1-3-1
		c-0.7,0-1.1,0.1-1.2,0.1l0.3,1l0.9-0.4c-0.7-1.5-1.6-2.4-2.6-3c-1-0.6-2-0.8-2.8-0.8c-1.6,0-2.6,0.6-2.7,0.6l0.5,0.9l0.9-0.5
		c-0.7-1.3-1.6-2.3-2.5-2.8c-0.9-0.6-1.9-0.8-2.7-0.8c-1.9,0-3.2,1-3.3,1l0.6,0.8L59.5,7C58.8,6,58,5.4,57.1,5
		c-0.8-0.4-1.7-0.6-2.5-0.6c-2.2,0-3.8,1.2-3.9,1.3l0.6,0.8l0.7-0.7C50.9,4.5,49.5,4,48.3,4c-1.3,0-2.4,0.5-3.2,1
		c-0.8,0.5-1.2,1-1.2,1l0.7,0.7l0.5-0.9c-1.1-0.7-2.2-0.9-3.2-0.9c-1.6,0-2.8,0.7-3.6,1.4C37.4,7,37,7.6,36.9,7.7l0.8,0.5l0.3-1
		c-0.9-0.2-1.6-0.3-2.3-0.3c-1,0-1.9,0.2-2.6,0.5c-1.1,0.5-1.8,1.2-2.2,1.8c-0.4,0.6-0.6,1.1-0.6,1.2l1,0.3l0.2-1
		c-0.5-0.1-1-0.1-1.5-0.1c-1.2,0-2.2,0.3-3.1,0.7c-1.2,0.6-1.9,1.6-2.3,2.4c-0.4,0.8-0.5,1.4-0.5,1.5l1,0.2l-0.1-1
		c-1.4,0.1-2.6,0.5-3.5,1c-1.4,0.8-2.1,2-2.5,2.9c-0.4,0.9-0.4,1.7-0.4,1.7l1,0.1l-0.2-1c-2.3,0.4-3.8,1.5-4.7,2.7
		c-0.9,1.2-1.1,2.6-1.1,3.6c0,1,0.2,1.7,0.2,1.8l1-0.3l-0.2-1c-1.1,0.2-2,0.6-2.7,1.1c-1.1,0.7-1.7,1.7-2.1,2.7
		c-0.4,1-0.4,1.9-0.4,2.6c0,0.8,0.1,1.3,0.1,1.3l1-0.2l-0.5-0.9c-1.3,0.7-2.2,1.5-2.7,2.4c-0.6,0.9-0.7,1.9-0.7,2.7c0,2,1,3.5,1,3.6
		l0.8-0.5L7.7,39c-1,0.8-1.6,1.6-2,2.5c-0.4,0.9-0.6,1.7-0.6,2.5c0,2.2,1.1,3.6,1.1,3.7L7,47.2l-0.7-0.7c-1.4,1.5-2,3.1-2,4.4
		c0,1.2,0.4,2.2,0.9,2.9c0.4,0.7,0.8,1.1,0.9,1.1L7.4,53.4L7.4,53.4z"/>
	<path style="fill:#DD234A;" d="M92.5,48.3l0.4-0.4L92.5,48.3L92.5,48.3l0.4-0.4L92.5,48.3c0,0,0.1,0.1,0.2,0.2
		c0.2,0.2,0.4,0.5,0.6,0.9c0.2,0.4,0.3,0.9,0.3,1.4c0,0.8-0.3,1.8-1.4,3.1l-0.6,0.6l0.5,0.7l0,0l0,0l0,0l0,0l0,0
		c0.1,0.1,0.8,1.2,0.8,2.6c0,0.5-0.1,1.1-0.4,1.6c-0.3,0.6-0.7,1.2-1.5,1.8l-0.7,0.6l0.5,0.8l0,0c0.1,0.1,0.7,1.2,0.7,2.5
		c0,0.6-0.1,1.1-0.5,1.7c-0.3,0.6-0.9,1.2-1.9,1.7l-0.7,0.3l0.1,0.7l0.4-0.1l-0.4,0.1l0,0l0.4-0.1l-0.4,0.1c0,0,0.1,0.4,0.1,0.9
		c0,0.7-0.1,1.7-0.6,2.5c-0.2,0.4-0.6,0.8-1,1.1c-0.5,0.3-1.1,0.6-1.9,0.7L84,75l0.3,1.1l0.3-0.1L84.3,76l0,0l0.3-0.1L84.3,76
		c0,0,0.1,0.5,0.1,1.2c0,0.7-0.2,1.7-0.7,2.4c-0.5,0.8-1.5,1.5-3.4,1.9l-0.8,0.1l-0.1,0.8l0.3,0l-0.3,0l0,0l0.3,0l-0.3,0
		c0,0-0.1,1-0.7,1.9c-0.3,0.4-0.7,0.9-1.3,1.2c-0.6,0.4-1.4,0.6-2.6,0.7l-0.8,0L74,87.1l0.4,0.1L74,87.1l0,0l0.4,0.1L74,87.1
		c0,0-0.2,0.8-0.7,1.5c-0.3,0.4-0.7,0.7-1.2,1c-0.5,0.3-1.2,0.4-2.1,0.4c-0.4,0-0.8,0-1.2-0.1L68,89.8l-0.3,0.8l0.5,0.2l-0.5-0.2
		l0,0l0.5,0.2l-0.5-0.2c0,0,0,0.1-0.2,0.4c-0.2,0.3-0.5,0.8-1,1.1c-0.5,0.4-1.2,0.7-2.3,0.7c-0.5,0-1.1-0.1-1.8-0.3l-0.7-0.2
		L61.3,93l0.3,0.2L61.3,93l0,0l0.3,0.2L61.3,93c0,0-0.3,0.5-0.9,1c-0.6,0.5-1.4,0.9-2.3,0.9c-0.6,0-1.3-0.2-2.2-0.7l-0.7-0.4
		l-0.5,0.6l0.3,0.2l-0.3-0.3l0,0l0.3,0.2l-0.3-0.3c0,0-0.4,0.4-0.9,0.7c-0.6,0.4-1.3,0.7-2,0.7c-0.7,0-1.5-0.2-2.4-1.1L48.6,94
		l-0.7,0.5l0,0c-0.1,0.1-1.3,0.9-2.7,0.9c-0.5,0-1-0.1-1.6-0.4c-0.5-0.3-1.1-0.7-1.7-1.5l-0.6-0.8l-0.8,0.6l0.3,0.5l-0.3-0.5l0,0
		l0.3,0.5l-0.3-0.5l0,0c-0.2,0.1-1.1,0.6-2.1,0.6c-0.5,0-1-0.1-1.6-0.5c-0.6-0.4-1.2-1-1.8-2.1l-0.5-0.9l-0.9,0.5l0.1,0.2l-0.1-0.2
		l0,0l0.1,0.2l-0.1-0.2c0,0-0.8,0.4-1.8,0.4c-0.6,0-1.2-0.1-1.8-0.5c-0.6-0.4-1.3-1-1.8-2.2L28,87.9l-0.8,0.2l0.1,0.4l-0.1-0.4l0,0
		l0.1,0.4l-0.1-0.4c0,0-0.3,0.1-0.6,0.1c-0.5,0-1.2-0.1-1.9-0.6c-0.7-0.5-1.5-1.4-2.1-3.2l-0.2-0.7l-0.8,0l0,0l-0.1,0
		c-0.3,0-1.2-0.1-2-0.6c-0.4-0.3-0.8-0.6-1.1-1.2c-0.3-0.5-0.6-1.3-0.6-2.4l-0.1-1.1l-1.1,0.1l0.1,0.5l-0.1-0.5l0,0l0.1,0.5
		l-0.1-0.5l-0.1,0c-0.2,0-0.8-0.1-1.4-0.6c-0.3-0.3-0.6-0.7-0.9-1.3c-0.3-0.6-0.5-1.5-0.6-2.7l0-0.8L13,73.2l0,0l0,0l0,0l0,0l0,0
		c-0.1,0-0.8-0.2-1.3-0.8c-0.3-0.3-0.6-0.6-0.8-1.1c-0.2-0.5-0.4-1.1-0.4-1.9c0-0.4,0-0.9,0.1-1.4l0.1-0.7L10.1,67L10,67.3l0.2-0.2
		l0,0L10,67.3l0.2-0.2c0,0-0.6-0.4-1.1-1c-0.5-0.6-1-1.5-1-2.4c0-0.6,0.2-1.3,0.6-2.1l0.4-0.8l-0.7-0.5l-0.2,0.3l0.2-0.3l0,0
		l-0.2,0.3l0.2-0.3c0,0-0.5-0.4-0.9-1c-0.4-0.6-0.8-1.4-0.8-2.4c0-0.7,0.2-1.4,0.7-2.4l0.4-0.6l-0.4-0.6l-0.3,0.3l0.3-0.3l0,0
		l-0.3,0.3l0.3-0.3c0,0-0.3-0.3-0.5-0.9c-0.3-0.5-0.5-1.2-0.5-1.9c0-0.8,0.2-1.6,1.1-2.5l-1.4-1.4c-1.2,1.2-1.7,2.7-1.7,3.9
		c0,1.2,0.4,2.2,0.7,2.9c0.3,0.7,0.7,1.1,0.7,1.2L6.6,54l-0.9-0.5c-0.7,1.2-1,2.4-1,3.4c0,1.5,0.6,2.8,1.2,3.6
		c0.6,0.8,1.2,1.3,1.2,1.3L7.8,61l-0.9-0.5C6.3,61.5,6,62.6,6,63.6c0,1.7,0.8,3,1.5,3.8c0.7,0.8,1.4,1.3,1.5,1.3l0.5-0.8l-1-0.2
		c-0.1,0.6-0.2,1.2-0.2,1.8c0,1.1,0.2,2.1,0.6,2.9c0.6,1.2,1.4,1.9,2.1,2.3c0.7,0.4,1.3,0.5,1.3,0.5l0.2-1l-1,0.1
		c0.1,1.4,0.3,2.5,0.7,3.4c0.5,1.3,1.4,2.2,2.2,2.6c0.8,0.4,1.5,0.5,1.9,0.5c0.2,0,0.3,0,0.3,0l-0.1-1l-1,0.1
		c0.1,1.3,0.4,2.4,0.9,3.2c0.7,1.3,1.8,2,2.7,2.3c0.9,0.4,1.7,0.4,2.1,0.4c0.1,0,0.2,0,0.2,0l-0.1-1L20.7,85
		c0.7,2.1,1.7,3.4,2.8,4.2c1.1,0.8,2.2,1,3,1c0.7,0,1.1-0.1,1.2-0.1l-0.3-1l-0.9,0.4c0.7,1.5,1.6,2.4,2.6,3c1,0.6,2,0.8,2.8,0.8
		c1.6,0,2.6-0.6,2.7-0.6l-0.5-0.9l-0.9,0.5c0.7,1.3,1.6,2.3,2.5,2.8c0.9,0.6,1.9,0.8,2.7,0.8c1.9,0,3.2-1,3.3-1l-0.6-0.8l-0.8,0.6
		c0.7,1,1.5,1.7,2.4,2.1c0.8,0.4,1.7,0.6,2.5,0.6c2.2,0,3.8-1.2,3.9-1.3l-0.6-0.8L47.8,96c1.2,1.2,2.6,1.7,3.8,1.7
		c1.3,0,2.4-0.5,3.2-1c0.8-0.5,1.2-1,1.2-1L55.3,95l-0.5,0.9c1.1,0.7,2.2,0.9,3.2,0.9c1.6,0,2.8-0.7,3.6-1.4
		c0.8-0.7,1.2-1.3,1.3-1.4l-0.8-0.5l-0.3,1c0.9,0.2,1.6,0.3,2.3,0.3c1,0,1.9-0.2,2.6-0.5c1.1-0.5,1.8-1.2,2.2-1.8
		c0.4-0.6,0.6-1.1,0.6-1.2l-1-0.3l-0.2,1c0.5,0.1,1,0.1,1.5,0.1c1.2,0,2.2-0.3,3.1-0.7c1.2-0.6,1.9-1.6,2.3-2.4
		c0.4-0.8,0.5-1.4,0.5-1.5l-1-0.2l0.1,1c1.4-0.1,2.6-0.5,3.5-1c1.4-0.8,2.1-2,2.5-2.9c0.4-0.9,0.4-1.7,0.4-1.7l-1-0.1l0.2,1
		c2.3-0.4,3.8-1.5,4.7-2.7c0.9-1.2,1.1-2.6,1.1-3.6c0-1-0.2-1.7-0.2-1.8l-1,0.3l0.2,1c1.1-0.2,2-0.6,2.7-1.1
		c1.1-0.7,1.7-1.7,2.1-2.7c0.4-1,0.4-1.9,0.4-2.6c0-0.8-0.1-1.3-0.1-1.3l-1,0.2l0.5,0.9c1.3-0.7,2.2-1.5,2.7-2.4
		c0.6-0.9,0.7-1.9,0.7-2.7c0-2-1-3.5-1-3.6L91.6,62l0.6,0.8c1-0.8,1.6-1.6,2-2.5c0.4-0.9,0.6-1.7,0.6-2.5c0-2.2-1.1-3.6-1.1-3.7
		l-0.8,0.6l0.7,0.7c1.4-1.5,2-3.1,2-4.4c0-1.2-0.4-2.2-0.9-2.9c-0.4-0.7-0.8-1.1-0.9-1.1L92.5,48.3L92.5,48.3z"/>
	<path style="fill:#FFFFFF;" d="M8.1,53.3l-0.4,0.4L8.1,53.3L8.1,53.3l-0.4,0.4L8.1,53.3L8.1,53.3c-0.1-0.1-0.4-0.4-0.6-0.9
		C7.2,52,7,51.5,7,50.9c0-0.8,0.3-1.8,1.4-3L9,47.2l-0.5-0.7l-0.1,0.1l0.1,0l0,0l-0.1,0.1l0.1,0c-0.1-0.1-0.8-1.2-0.8-2.5
		c0-0.5,0.1-1,0.4-1.6c0.3-0.6,0.7-1.2,1.5-1.8l0.7-0.6l-0.5-0.8l0,0l0,0l0,0l0,0l0,0c-0.1-0.1-0.7-1.2-0.7-2.4
		c0-0.5,0.1-1.1,0.5-1.7c0.3-0.6,0.9-1.1,1.9-1.7l0.7-0.3L12,32.5l-0.4,0.1l0.4-0.1l0,0l-0.4,0.1l0.4-0.1c0,0-0.1-0.4-0.1-0.9
		c0-0.7,0.1-1.7,0.6-2.5c0.2-0.4,0.6-0.8,1-1.1c0.5-0.3,1.1-0.6,1.9-0.7l1.1-0.2L16.3,26l-0.3,0.1l0.3-0.1l0,0l-0.3,0.1l0.3-0.1
		c0,0-0.1-0.5-0.1-1.2c0-0.7,0.2-1.6,0.7-2.4c0.5-0.8,1.5-1.5,3.3-1.8l0.8-0.1l0.1-0.8l-0.3,0l0.3,0l0,0l-0.3,0l0.3,0
		c0,0,0.1-1,0.7-1.8c0.3-0.4,0.7-0.9,1.3-1.2c0.6-0.3,1.4-0.6,2.5-0.7l0.8,0l0.1-0.8L26,15l0.4,0.1l0,0L26,15l0.4,0.1
		c0,0,0.2-0.8,0.7-1.5c0.3-0.4,0.6-0.7,1.1-0.9c0.5-0.3,1.1-0.4,2-0.4c0.4,0,0.8,0,1.3,0.1l0.9,0.2l0.3-0.8L32,11.5l0.5,0.2l0,0
		L32,11.5l0.5,0.2c0,0,0-0.1,0.2-0.3c0.2-0.3,0.5-0.7,1-1.1c0.5-0.4,1.2-0.6,2.2-0.6c0.5,0,1.1,0.1,1.8,0.3l0.7,0.2l0.4-0.6
		l-0.3-0.2l0.3,0.2l0,0l-0.3-0.2l0.3,0.2c0,0,0.3-0.5,0.9-0.9C40.3,8.1,41,7.7,42,7.7c0.6,0,1.3,0.2,2.2,0.6l0.7,0.4l0.5-0.6
		l-0.3-0.3l0.3,0.3l0,0l-0.3-0.3l0.3,0.3c0,0,0.4-0.4,0.9-0.7c0.5-0.3,1.2-0.6,2-0.6c0.7,0,1.5,0.2,2.4,1.1l0.6,0.6L52,7.9l0,0
		c0.1-0.1,1.3-0.8,2.6-0.8c0.5,0,1,0.1,1.5,0.4c0.5,0.3,1.1,0.7,1.7,1.5l0.6,0.8l0.8-0.6l-0.3-0.5l0.3,0.5l0,0l-0.3-0.5l0.3,0.5l0,0
		c0.2-0.1,1-0.6,2-0.6c0.5,0,1,0.1,1.6,0.5c0.6,0.4,1.2,1,1.8,2.1l0.5,0.9l0.9-0.4l-0.1-0.3l0.1,0.3l0,0l-0.1-0.3l0.1,0.3
		c0,0,0.8-0.4,1.7-0.4c0.6,0,1.2,0.1,1.8,0.5c0.6,0.4,1.3,1,1.9,2.2l0.4,0.8l0.8-0.2l-0.1-0.4l0.1,0.4l0,0l-0.1-0.4l0.1,0.4
		c0,0,0.3-0.1,0.6-0.1c0.5,0,1.2,0.1,1.8,0.6c0.7,0.5,1.4,1.4,2,3.2l0.2,0.7l0.8-0.1l0,0l0.1,0c0.3,0,1.2,0.1,1.9,0.6
		c0.4,0.3,0.8,0.6,1.1,1.1c0.3,0.5,0.5,1.3,0.6,2.4l0.1,1.1l1.1-0.1l-0.1-0.5l0.1,0.5l0,0l-0.1-0.5l0.1,0.5l0.1,0
		c0.2,0,0.8,0.1,1.4,0.6c0.3,0.3,0.6,0.6,0.9,1.3c0.3,0.6,0.5,1.5,0.6,2.7l0,0.7l0.7,0.2l0,0l0,0l0,0l0,0l0,0c0.1,0,0.7,0.2,1.3,0.7
		c0.3,0.3,0.6,0.6,0.8,1.1c0.2,0.5,0.4,1.1,0.4,1.8c0,0.4,0,0.9-0.1,1.4l-0.1,0.7l0.6,0.4l0.2-0.3l-0.2,0.3l0,0l0.2-0.3l-0.2,0.3
		c0,0,0.6,0.4,1.1,1c0.5,0.6,1,1.4,1,2.4c0,0.6-0.2,1.3-0.6,2.1l-0.4,0.8l0.7,0.5l0.2-0.3l-0.2,0.3l0,0l0.2-0.3l-0.2,0.3
		c0,0,0.5,0.4,0.9,1c0.4,0.6,0.8,1.4,0.8,2.3c0,0.7-0.2,1.4-0.7,2.3l-0.4,0.6l0.5,0.6l0,0c0,0,0.3,0.4,0.5,0.9
		c0.2,0.5,0.5,1.1,0.5,1.8c0,0.8-0.2,1.6-1.1,2.5l1.4,1.4c1.2-1.2,1.7-2.7,1.7-3.9c0-1.2-0.4-2.1-0.7-2.8c-0.4-0.7-0.7-1.1-0.7-1.2
		L92.6,48l0.8,0.5c0.7-1.2,1.1-2.3,1.1-3.4c0-1.5-0.6-2.7-1.2-3.6c-0.6-0.8-1.2-1.3-1.2-1.3l-0.6,0.8l0.9,0.5
		c0.6-1.1,0.9-2.1,0.9-3.1c0-1.7-0.8-2.9-1.5-3.8c-0.7-0.8-1.4-1.3-1.5-1.3l-0.5,0.9l1,0.2c0.1-0.6,0.2-1.2,0.2-1.8
		c0-1.1-0.2-2.1-0.6-2.8c-0.6-1.1-1.4-1.8-2.1-2.2c-0.7-0.4-1.2-0.5-1.3-0.5l-0.2,1l1-0.1c-0.1-1.4-0.3-2.4-0.7-3.3
		c-0.5-1.3-1.4-2.1-2.2-2.6c-0.8-0.4-1.5-0.5-1.9-0.5c-0.2,0-0.3,0-0.3,0l0.1,1l1-0.1c-0.1-1.3-0.4-2.4-0.9-3.2
		c-0.7-1.3-1.8-2-2.7-2.3c-0.9-0.4-1.7-0.4-2.1-0.4c-0.1,0-0.2,0-0.2,0l0.1,1l1-0.3c-0.7-2.1-1.7-3.4-2.8-4.2c-1.1-0.8-2.2-1-3-1
		c-0.7,0-1.1,0.1-1.2,0.1l0.3,1l0.9-0.4c-0.7-1.4-1.6-2.4-2.6-3c-1-0.6-2-0.8-2.8-0.8c-1.5,0-2.5,0.5-2.6,0.6l0.5,0.9l0.9-0.5
		c-0.7-1.3-1.5-2.2-2.4-2.8c-0.9-0.6-1.8-0.8-2.6-0.8c-1.8,0-3.1,0.9-3.2,1l0.6,0.8l0.8-0.6c-0.7-1-1.5-1.6-2.4-2
		c-0.8-0.4-1.7-0.6-2.4-0.6c-2.2,0-3.7,1.2-3.8,1.2l0.6,0.8l0.7-0.7c-1.2-1.2-2.6-1.7-3.8-1.6c-1.3,0-2.4,0.5-3.1,1
		c-0.7,0.5-1.2,1-1.2,1l0.7,0.7l0.5-0.9C44.1,5.9,43,5.7,42,5.7c-1.6,0-2.8,0.7-3.6,1.4c-0.8,0.7-1.2,1.3-1.2,1.4L38,8.9l0.3-1
		c-0.9-0.2-1.6-0.3-2.3-0.3c-1,0-1.8,0.2-2.5,0.5c-1,0.5-1.7,1.2-2.1,1.8c-0.4,0.6-0.6,1.1-0.6,1.1l0.9,0.3l0.2-1
		c-0.6-0.1-1.1-0.2-1.6-0.2c-1.2,0-2.2,0.3-3,0.7c-1.2,0.6-1.9,1.6-2.3,2.4c-0.4,0.8-0.5,1.4-0.5,1.4l1,0.2l-0.1-1
		c-1.4,0.1-2.6,0.5-3.5,1c-1.3,0.8-2.1,2-2.5,2.9c-0.4,0.9-0.4,1.6-0.4,1.7l1,0.1l-0.2-1C17.5,19,16,20,15.2,21.2
		c-0.8,1.2-1,2.5-1,3.5c0,1,0.2,1.7,0.2,1.8l1-0.3l-0.2-1c-1.1,0.2-1.9,0.6-2.7,1c-1.1,0.7-1.7,1.7-2.1,2.7
		c-0.4,0.9-0.4,1.9-0.4,2.6c0,0.8,0.1,1.3,0.1,1.3l1-0.2l-0.5-0.9c-1.3,0.7-2.2,1.5-2.7,2.4c-0.6,0.9-0.7,1.9-0.7,2.7
		c0,2,1,3.4,1,3.5L9,39.9l-0.6-0.8c-1,0.8-1.6,1.6-2,2.5c-0.4,0.9-0.6,1.7-0.6,2.5c0,2.1,1.1,3.6,1.2,3.7l0.8-0.6L7,46.5
		c-1.4,1.5-2,3.1-2,4.4c0,1.2,0.4,2.2,0.9,2.9c0.4,0.7,0.8,1,0.9,1.1L8.1,53.3L8.1,53.3z"/>
	<path style="fill:#FFFFFF;" d="M91.8,48.3l0.4-0.4L91.8,48.3L91.8,48.3l0.4-0.4L91.8,48.3L91.8,48.3c0.1,0.1,0.4,0.4,0.6,0.9
		c0.2,0.4,0.4,1,0.4,1.6c0,0.8-0.3,1.8-1.4,3l-0.6,0.6l0.5,0.7l0.1-0.1l-0.1,0l0,0l0.1-0.1l-0.1,0c0.1,0.1,0.8,1.2,0.8,2.5
		c0,0.5-0.1,1-0.4,1.6c-0.3,0.6-0.7,1.2-1.5,1.8l-0.7,0.6l0.5,0.8l0,0l0,0l0,0l0,0l0,0c0.1,0.1,0.7,1.2,0.7,2.4
		c0,0.5-0.1,1.1-0.5,1.7c-0.3,0.6-0.9,1.1-1.9,1.7l-0.7,0.3l0.1,0.7l0.4-0.1l-0.4,0.1l0,0l0.4-0.1l-0.4,0.1c0,0,0.1,0.4,0.1,0.9
		c0,0.7-0.1,1.7-0.6,2.5c-0.2,0.4-0.6,0.8-1,1.1c-0.5,0.3-1.1,0.6-1.9,0.7l-1.1,0.2l0.3,1.1l0.3-0.1l-0.3,0.1l0,0l0.3-0.1l-0.3,0.1
		c0,0,0.1,0.5,0.1,1.2c0,0.7-0.2,1.6-0.7,2.4c-0.5,0.8-1.5,1.5-3.3,1.8L79,81.2L79,82l0.3,0L79,82l0,0l0.3,0L79,82
		c0,0-0.1,1-0.7,1.8C78,84.3,77.6,84.7,77,85c-0.6,0.3-1.4,0.6-2.5,0.7l-0.8,0l-0.1,0.8l0.4,0.1l-0.4-0.1l0,0l0.4,0.1l-0.4-0.1
		c0,0-0.2,0.8-0.7,1.5c-0.3,0.4-0.6,0.7-1.1,0.9c-0.5,0.3-1.1,0.4-2,0.4c-0.4,0-0.8,0-1.3-0.1l-0.9-0.2l-0.3,0.8l0.5,0.2l-0.5-0.2
		l0,0l0.5,0.2l-0.5-0.2c0,0,0,0.1-0.2,0.3c-0.2,0.3-0.5,0.7-1,1.1C65.7,91.7,65.1,92,64,92c-0.5,0-1.1-0.1-1.8-0.3l-0.7-0.2
		l-0.4,0.6l0.3,0.2l-0.3-0.2l0,0l0.3,0.2l-0.3-0.2c0,0-0.3,0.5-0.9,0.9c-0.6,0.5-1.3,0.9-2.3,0.9c-0.6,0-1.3-0.2-2.2-0.6L55,92.9
		l-0.5,0.6l0.3,0.3l-0.3-0.3l0,0l0.3,0.3l-0.3-0.3c0,0-0.4,0.4-0.9,0.7c-0.5,0.3-1.2,0.6-2,0.6c-0.7,0-1.5-0.2-2.4-1.1l-0.6-0.6
		l-0.7,0.5l0,0c-0.1,0.1-1.3,0.8-2.6,0.8c-0.5,0-1-0.1-1.5-0.4c-0.5-0.3-1.1-0.7-1.7-1.5l-0.6-0.8l-0.8,0.6l0.3,0.5l-0.3-0.5l0,0
		l0.3,0.5l-0.3-0.5l0,0c-0.2,0.1-1,0.6-2,0.6c-0.5,0-1-0.1-1.6-0.5c-0.6-0.4-1.2-1-1.8-2.1l-0.5-0.9l-0.9,0.4l0.1,0.3l-0.1-0.3l0,0
		l0.1,0.3l-0.1-0.3c0,0-0.8,0.4-1.7,0.4c-0.6,0-1.2-0.1-1.8-0.5c-0.6-0.4-1.3-1-1.9-2.2l-0.4-0.8l-0.8,0.2l0.1,0.4l-0.1-0.4l0,0
		l0.1,0.4l-0.1-0.4c0,0-0.3,0.1-0.6,0.1c-0.5,0-1.2-0.1-1.8-0.6c-0.7-0.5-1.4-1.4-2-3.2l-0.2-0.7L22,82.9l0,0l-0.1,0
		c-0.3,0-1.2-0.1-1.9-0.6c-0.4-0.3-0.8-0.6-1.1-1.1c-0.3-0.5-0.5-1.3-0.6-2.4l-0.1-1.1l-1.1,0.1l0.1,0.5l-0.1-0.5l0,0l0.1,0.5
		l-0.1-0.5l-0.1,0c-0.2,0-0.8-0.1-1.4-0.6c-0.3-0.3-0.6-0.6-0.9-1.3c-0.3-0.6-0.5-1.5-0.6-2.7l0-0.7l-0.7-0.2l0,0l0,0l0,0l0,0l0,0
		c-0.1,0-0.7-0.2-1.3-0.7c-0.3-0.3-0.6-0.6-0.8-1.1c-0.2-0.5-0.4-1.1-0.4-1.8c0-0.4,0-0.9,0.1-1.4l0.1-0.7l-0.6-0.4l-0.2,0.3
		l0.2-0.3l0,0l-0.2,0.3l0.2-0.3c0,0-0.6-0.4-1.1-1c-0.5-0.6-1-1.4-1-2.4c0-0.6,0.2-1.3,0.6-2.1l0.4-0.8l-0.7-0.5L8.9,60l0.2-0.3l0,0
		L8.9,60l0.2-0.3c0,0-0.5-0.4-0.9-1c-0.4-0.6-0.8-1.4-0.8-2.3c0-0.7,0.2-1.4,0.7-2.3l0.4-0.6l-0.5-0.6l0,0c0,0-0.3-0.4-0.5-0.9
		c-0.2-0.5-0.5-1.1-0.5-1.8c0-0.8,0.2-1.6,1.1-2.5l-1.4-1.4c-1.2,1.2-1.7,2.7-1.7,3.9c0,1.2,0.4,2.1,0.7,2.8
		c0.4,0.7,0.7,1.1,0.7,1.2l0.8-0.6L6.5,53c-0.7,1.2-1.1,2.3-1.1,3.4c0,1.5,0.6,2.7,1.2,3.6c0.6,0.8,1.2,1.3,1.2,1.3l0.6-0.8L7.6,60
		C7,61.1,6.8,62.1,6.8,63c0,1.7,0.8,2.9,1.5,3.8c0.7,0.8,1.4,1.3,1.5,1.3l0.5-0.9l-1-0.2c-0.1,0.6-0.2,1.2-0.2,1.8
		c0,1.1,0.2,2.1,0.6,2.8c0.6,1.1,1.4,1.8,2.1,2.2c0.7,0.4,1.2,0.5,1.3,0.5l0.2-1l-1,0.1c0.1,1.4,0.3,2.4,0.7,3.3
		c0.5,1.3,1.4,2.1,2.2,2.6c0.8,0.4,1.5,0.5,1.9,0.5c0.2,0,0.3,0,0.3,0l-0.1-1l-1,0.1c0.1,1.3,0.4,2.4,0.9,3.2c0.7,1.3,1.8,2,2.7,2.3
		c0.9,0.4,1.7,0.4,2.1,0.4c0.1,0,0.2,0,0.2,0l-0.1-1l-1,0.3c0.7,2.1,1.7,3.4,2.8,4.2c1.1,0.8,2.2,1,3,1c0.7,0,1.1-0.1,1.2-0.1
		l-0.3-1l-0.9,0.4c0.7,1.4,1.6,2.4,2.6,3c1,0.6,2,0.8,2.8,0.8c1.5,0,2.5-0.5,2.6-0.6L34.5,91l-0.9,0.5c0.7,1.3,1.5,2.2,2.4,2.8
		c0.9,0.6,1.8,0.8,2.6,0.8c1.8,0,3.1-0.9,3.2-1l-0.6-0.8l-0.8,0.6c0.7,1,1.5,1.6,2.4,2c0.8,0.4,1.7,0.6,2.4,0.6
		c2.2,0,3.7-1.2,3.8-1.2l-0.6-0.8l-0.7,0.7c1.2,1.2,2.6,1.7,3.8,1.6c1.3,0,2.4-0.5,3.1-1c0.7-0.5,1.2-1,1.2-1l-0.7-0.7l-0.5,0.9
		c1.1,0.6,2.2,0.9,3.2,0.9c1.6,0,2.8-0.7,3.6-1.4c0.8-0.7,1.2-1.3,1.2-1.4l-0.8-0.5l-0.3,1c0.9,0.2,1.6,0.3,2.3,0.3
		c1,0,1.8-0.2,2.5-0.5c1-0.5,1.7-1.2,2.1-1.8c0.4-0.6,0.6-1.1,0.6-1.1l-0.9-0.3l-0.2,1c0.6,0.1,1.1,0.2,1.6,0.2c1.2,0,2.2-0.3,3-0.7
		c1.2-0.6,1.9-1.6,2.3-2.4c0.4-0.8,0.5-1.4,0.5-1.4l-1-0.2l0.1,1c1.4-0.1,2.6-0.5,3.5-1c1.3-0.8,2.1-2,2.5-2.9
		c0.4-0.9,0.4-1.6,0.4-1.7l-1-0.1l0.2,1c2.3-0.4,3.7-1.4,4.6-2.7c0.8-1.2,1-2.5,1-3.5c0-1-0.2-1.7-0.2-1.8l-1,0.3l0.2,1
		c1.1-0.2,1.9-0.6,2.7-1c1.1-0.7,1.7-1.7,2.1-2.7c0.4-0.9,0.4-1.9,0.4-2.6c0-0.8-0.1-1.3-0.1-1.3l-1,0.2l0.5,0.9
		c1.3-0.7,2.2-1.5,2.7-2.4c0.6-0.9,0.7-1.9,0.7-2.7c0-2-1-3.4-1-3.5l-0.8,0.5l0.6,0.8c1-0.8,1.6-1.6,2-2.5c0.4-0.9,0.6-1.7,0.6-2.5
		c0-2.1-1.1-3.6-1.2-3.7l-0.8,0.6l0.7,0.7c1.4-1.5,2-3.1,2-4.4c0-1.2-0.4-2.2-0.9-2.9c-0.4-0.7-0.8-1-0.9-1.1L91.8,48.3L91.8,48.3z"
		/>
</g>
</svg>
