<?xml version="1.0" encoding="utf-8"?>
<!-- Generator: Adobe Illustrator 19.0.0, SVG Export Plug-In . SVG Version: 6.00 Build 0)  -->
<svg version="1.1" id="Layer_1" xmlns="http://www.w3.org/2000/svg" xmlns:xlink="http://www.w3.org/1999/xlink" x="0px" y="0px"
	 viewBox="0 0 100 100" style="enable-background:new 0 0 100 100;" xml:space="preserve">
<path id="XMLID_36_" style="fill:#ff9800;" d="M6.9,35.9c0-2.1,0-4.1,0-6.2c0.2,0,0.2-0.1,0.2-0.2c0.1-0.4,0.1-0.8,0.1-1.2
	c0.5-3.9,1.6-7.6,3.5-11c3.4-5.8,8.2-9.5,14.9-10.5c0.1,0,0.3,0,0.3-0.2c1.6,0,3.2,0,4.8,0c0,0.3,0.2,0.2,0.3,0.2
	c3.8,0.5,7.1,2.1,10.1,4.4c3.7,2.9,6.3,6.6,8.3,10.8c0.1,0.2,0.2,0.5,0.4,0.7c0.1-0.3,0.2-0.5,0.3-0.7c1.8-3.8,4.1-7.2,7.4-9.9
	c4.6-3.8,9.9-5.7,15.9-5.1c5.9,0.6,10.7,3.5,14.2,8.3c2.5,3.4,3.9,7.3,4.7,11.5c0,0.2-0.1,0.4,0.2,0.4c0,3.4,0,6.8,0,10.3
	c-0.3,0-0.2,0.2-0.2,0.4c-0.7,3.3-2.2,6.3-4.4,8.9c-1.8,2.2-3.8,4-6.1,5.7c-3.1,2.3-6.3,4.3-9.6,6.3c-7.1,4.3-13.3,9.5-18.6,15.9
	c-1.3,1.5-2.5,3.1-3.4,4.9c-0.1,0.3-0.3,0.6-0.4,1c-0.5-1.4-1.2-2.6-2-3.7c-3.7-5.2-8.3-9.5-13.4-13.3c-3.2-2.4-6.7-4.3-10.1-6.4
	c-4-2.4-7.8-5-11.1-8.5c-3.3-3.6-5.5-7.7-6.1-12.6C7.1,36.1,7.2,35.9,6.9,35.9z"/>
<radialGradient id="SVGID_1_" cx="50.8962" cy="-236.6788" r="32.598" gradientTransform="matrix(1 0 0 0.2516 0 150.7957)" gradientUnits="userSpaceOnUse">
	<stop  offset="0" style="stop-color:#BDBDBD"/>
	<stop  offset="0.1433" style="stop-color:#CECECE"/>
	<stop  offset="0.4157" style="stop-color:#E9E9E9"/>
	<stop  offset="0.6576" style="stop-color:#F9F9F9"/>
	<stop  offset="0.8424" style="stop-color:#FFFFFF"/>
	<stop  offset="1" style="stop-color:#FBFCFC"/>
</radialGradient>
<ellipse style="fill:url(#SVGID_1_);" cx="50.7" cy="91.4" rx="32.1" ry="8.1"/>
<g id="XMLID_17_">
	<path id="XMLID_32_" style="fill:#FFFFFF;" d="M57.4,49c-0.8,0.3-1.6,0.8-2.4,1.3c-0.9,0.6-1.5,1.3-2,2c-0.1,0-0.1,0-0.2,0
		c-0.2,0-0.3,0-0.3-0.1c-0.4-0.7-0.8-1.6-1.4-2.6c-0.6,0.2-1.2,0.4-1.8,0.5c-1,0.2-2,0.4-3.1,0.4c-1.5,0-2.6-0.3-3.2-0.9
		C42.3,49,42,48.1,42,46.9c0-1.1,0.4-2,1.1-2.9c0.5-0.6,1-1,1.5-1.3c0.2-0.1,0.7-0.4,1.5-0.7c-0.4-0.4-0.8-0.9-1.1-1.6
		c-0.3-0.6-0.4-1.2-0.4-1.6c0-0.8,0.5-1.6,1.5-2.3s2-1,3.2-1c1,0,1.9,0.3,2.6,0.8s1,1.2,1,2c0,1.2-0.4,2.2-1.2,3
		c-0.6,0.6-1.3,1-2.3,1.3c0.9,0.8,2.1,2.3,3.8,4.5c0.6-0.3,1.3-0.8,2-1.5c0.7-0.7,1.1-1.3,1.1-1.9c0-0.2,0-0.3-0.1-0.3
		c0,0-0.1,0-0.1,0c-1.2,1-2.1,1.5-2.8,1.5c-0.3,0-0.6-0.1-0.9-0.3c-0.2-0.1-0.3-0.4-0.3-0.8c0-1,0.5-2,1.6-3.2c0.6-0.7,1.2-1,1.8-1
		c0.5,0,1,0.2,1.4,0.7c0.4,0.5,0.6,1.2,0.6,2.3c0,1.4-0.5,2.7-1.4,3.8c-0.5,0.6-1.2,1.1-2.1,1.7c0.1,0.2,0.4,0.6,0.7,1.1
		c0.2-0.3,0.5-0.5,0.7-0.8c0.4-0.4,0.8-0.7,1.2-0.9C56.8,47.9,57,48.4,57.4,49z M50.3,48.1c-1.3-2.2-2.3-3.9-3.1-4.8
		c-0.2,0-0.4,0.2-0.6,0.6c-0.3,0.5-0.5,1.2-0.5,2c0,0.8,0.2,1.4,0.7,1.9c0.4,0.4,1,0.6,1.7,0.6c0.4,0,0.8,0,1.2-0.1
		C50,48.2,50.2,48.2,50.3,48.1z M51.1,39.1c0-0.7-0.5-1-1.5-1c-0.7,0-1.3,0.2-2,0.5c-0.7,0.4-1,0.8-1,1.3c0,0.2,0,0.3,0.1,0.5
		c0.3,0.6,0.8,0.9,1.5,0.9c0.3,0,0.6-0.1,0.9-0.2C50.5,40.6,51.1,40,51.1,39.1z"/>
</g>
<g id="XMLID_2_">
	<g id="XMLID_19_">
		<path id="XMLID_31_" style="fill:none;stroke:#FFFFFF;stroke-miterlimit:10;" d="M16.2,39.5c-0.1-0.5-0.2-1.1-0.3-1.6
			c0-0.1,0.1-0.3-0.2-0.3c0-0.7,0-1.3,0-2"/>
		<path id="XMLID_30_" style="fill:none;stroke:#FFFFFF;stroke-miterlimit:10;" d="M15.8,34.9c0-0.7,0-1.3,0-2
			c0.2,0,0.1-0.1,0.1-0.2c0-0.3,0.1-0.6,0.1-0.9c0-0.3,0.1-0.5,0.1-0.8"/>
		<path id="XMLID_29_" style="fill:none;stroke:#FFFFFF;stroke-miterlimit:10;stroke-dasharray:4.2279,4.2279;" d="M17.1,26.9
			c0.4-1.2,1-2.4,1.6-3.6c2-3.3,4.6-5.7,8-7.1"/>
		<path id="XMLID_28_" style="fill:none;stroke:#FFFFFF;stroke-miterlimit:10;" d="M28.8,15.6c0.5-0.1,1.1-0.2,1.7-0.3
			c0.1,0,0.2,0,0.2-0.1c1.3,0,2.5,0,3.8,0c0,0.2,0.2,0.1,0.3,0.2c0.5,0.1,1.1,0.2,1.6,0.3"/>
		<path id="XMLID_27_" style="fill:none;stroke:#FFFFFF;stroke-miterlimit:10;stroke-dasharray:3.2548,3.2548;" d="M39.3,16.7
			c1.1,0.5,2.2,1.2,3.2,2c2.1,1.6,3.7,3.5,5,5.7"/>
		<path id="XMLID_26_" style="fill:none;stroke:#FFFFFF;stroke-miterlimit:10;" d="M48.4,25.7c0.2,0.4,0.4,0.8,0.6,1.2
			c0.1,0.2,0.1,0.4,0.3,0.5c0.1-0.2,0.2-0.4,0.3-0.5c0.2-0.4,0.4-0.8,0.6-1.3"/>
		<path id="XMLID_25_" style="fill:none;stroke:#FFFFFF;stroke-miterlimit:10;stroke-dasharray:4.2538,4.2538;" d="M52.5,22.2
			c0.8-1,1.8-2,2.8-2.8c3.6-2.9,9-5.8,13.7-5.3c4.6,0.5,9.5,1.9,11.5,6.9c1.7,2.7,2.3,4.5,2.8,6.7"/>
		<path id="XMLID_24_" style="fill:none;stroke:#FFFFFF;stroke-miterlimit:10;" d="M83.6,29.7c0,0.6-0.2,1.9,0,2
			c0,0.7-0.1,1.4-0.2,2"/>
		<path id="XMLID_23_" style="fill:none;stroke:#FFFFFF;stroke-miterlimit:10;" d="M82.8,36.9c-0.1,0.6-0.2,1.3-0.2,2
			c-0.2,0-0.2,0.2-0.2,0.3c-0.1,0.5-0.3,1.1-0.4,1.6"/>
		<path id="XMLID_22_" style="fill:none;stroke:#FFFFFF;stroke-miterlimit:10;stroke-dasharray:4.0037,4.0037;" d="M80.3,44.3
			c-0.4,0.6-0.8,1.2-1.3,1.7c-1.4,1.7-3,3.1-4.7,4.4c-2.4,1.8-4.9,3.3-7.5,4.8c-5.5,3.3-10.4,7.3-14.5,12.2
			c-0.3,0.4-0.6,0.8-0.9,1.1"/>
		<path id="XMLID_21_" style="fill:none;stroke:#FFFFFF;stroke-miterlimit:10;" d="M50.2,70.3c-0.2,0.3-0.4,0.7-0.6,1
			c-0.1,0.2-0.2,0.5-0.3,0.8c-0.2-0.7-0.5-1.2-0.9-1.8"/>
		<path id="XMLID_20_" style="fill:none;stroke:#FFFFFF;stroke-miterlimit:10;stroke-dasharray:4.1333,4.1333;" d="M46,66.9
			c-2.5-3-5.5-5.6-8.8-8c-2.5-1.8-5.3-3.3-7.9-4.9c-3.1-1.9-6.1-3.9-8.6-6.5c-1.7-1.8-3.1-3.8-3.9-6.1"/>
	</g>
</g>
</svg>
