<?xml version="1.0" encoding="utf-8"?>
<!-- Generator: Adobe Illustrator 19.0.0, SVG Export Plug-In . SVG Version: 6.00 Build 0)  -->
<svg version="1.1" id="Layer_1" xmlns="http://www.w3.org/2000/svg" xmlns:xlink="http://www.w3.org/1999/xlink" x="0px" y="0px"
	 viewBox="0 0 400 400" style="enable-background:new 0 0 400 400;" xml:space="preserve">
<path id="XMLID_300_" style="fill:#1D1D1C;" d="M303,138.3c-4.2-5.9-3.8-8.5,1.6-12.4c3.4-2.5,3.9-8.2,0.3-10.3
	c-6.2-3.5-8.3-8.8-8.4-15.3c-0.2-8-0.9-16,0.6-23.9c1.2-6.6,4.1-9.1,10.6-9.6c0.7-0.1,1.3-0.1,2-0.1c11.9-0.3,14.3,1.7,15.3,13.6
	c0.5,6,0.9,11.9,1.4,17.9c0.5,6.9-1.2,12.5-7.9,15.7c-2.2,1-4,2.5-4.4,5.1c-0.3,2.1-1.1,3.9,2.7,4.6c9.3,1.5,11.4,8.3,5.5,16
	c0.6,1.9,4.5,0.9,3.6,3.6c-0.8,2.5-3.5,3.1-5.8,2.8c-3.7-0.4-5.3,1.4-7.3,4.3c-9.9,14.6-32.4,19.7-49.6,11.4
	c-1.2-0.6-2.3-1.2-3.9-2.1c-1.4,13.6-5.3,26.4-7.2,39.6c-0.4,2.6,0.8,3.2,2.8,3.7c4,1,7,3.3,8.8,6.8c3,5.8-0.2,11.7-7.4,13.3
	c-3.9,0.9-5,2-4.6,6.3c1.3,12.6,3.7,24.8,9.2,36.3c2.2,4.7,1.8,5.3-3.2,5.7c-7.4,0.6-7.2,0.6-6.3,7.7c2.6,21.9,5.3,43.8,10.3,65.3
	c0.6,2.6-0.6,3.1-2.6,3.8c-1.3,0.4-3.4,0.2-3.6,1.9c-0.2,2,2.1,2.4,3.4,3.1c4.2,2.2,8.7,4,12.6,7c2.3,1.8,3.3,3.4-1.1,4.8
	c0.3,0.4,0.5,0.8,0.8,1.2c7.5,0,15.1-0.8,22.5,0.2c17.1,2.2,33.7-1.6,50.5-3.2c2.3-0.2,4.7-0.2,7-0.1c1.1,0,2.6-0.2,2.7,1.5
	c0.1,2.1-1.6,1.7-2.9,1.7c-7-0.2-13.9,0.5-20.7,2c-0.3,0.1-0.5,0.4-0.9,0.8c6.6,0.5,12.9,0.9,19.3,1.4c1.7,0.1,4.4-0.4,4.2,2.2
	c-0.2,2-2.6,1.5-4.2,1.4c-13.4-1.2-26.9-1.5-40.2-3.1c-12.4-1.4-24.8-1.4-37.2-1.6c-1,0-2.6-0.1-2.4-1.1c1.3-5.4-2.6-2.5-4.1-2.4
	c-11.6,0.6-23.2,1.7-34.8,1.8c-10.4,0.1-21-0.2-31.3,0.5c-5.6,0.4-11.5-0.5-17.3,0.8c-3.3,0.7-7.4-1-11.3,0.2
	c-1,0.3-1.6-1.4-1.9-2.6c-0.7-2.9-1.5-5.7-2.4-9.3c-1.3,4-2.4,7.4-3.4,10.8c-0.5,1.6-1,3.1-3,2.2c-2-0.9-0.4-2.4-0.1-3.4
	c2.9-8.4,4.1-17,4.9-25.8c0.2-1.9-0.3-4.1,3.2-3.4c1.7,0.4,0.9-1.7,0.7-2.4c-0.5-2,0.2-5-3.5-4.8c-7.5,0.3-14.9,0.5-22.4,0.7
	c-2.2,0.1-4.3,0-6.5,0.1c-2.2,0.1-3.3,1.1-1.5,3.1c2.9,3.1,2.7,7,2.9,10.8c0.3,5.3-0.6,10.6,1,15.9c0.9,3.1,2,5.5,5.9,5.4
	c1.5,0,4.3,0,4.1,2.4c-0.2,2.6-2.7,1.5-4.3,1.5c-21.4,0.2-42.7,0.2-63.9,4.4c-10.1,2-20.4,2.9-30.7,2.8c-1.4,0-3.9,1.1-3.8-1.6
	c0.2-2.4,2.6-1.6,4.1-1.5c6.5,0.3,12.9-0.9,19.7-1.3c-1.6-1.6-3.3-0.8-4.8-0.9c-1.3-0.1-2.6-0.4-2.7-1.6c-0.2-1.7,1.3-2,2.7-2.1
	c7.6-0.7,15.2-1.5,22.8-2.1c4.5-0.4,9-0.8,13.4-0.8c3.3,0,6.3-0.3,9.7,2c2.7,1.8,7.7,0.1,11.6-0.4c1.4-0.2,1.1-1.9,1.2-3
	c0.1-4.1,0-8.3-0.6-12.7c-1.8,3.7-3.6,7.5-5.5,11.2c-0.5,1-1.2,2.2-2.7,1.5c-1.5-0.7-1.1-1.8-0.5-2.9c4.8-9.7,9.9-19.3,16.1-28.7
	c-4.9-0.7-9.7,0-14.5,0.2c-9,0.4-17.9-0.2-26.2-3.8c-8.1-3.5-14.2-9.1-16.3-18.2c-1.3-5.7,1.7-12.5,6.9-15.2c1-0.5,2.1-1.2,3.1,0
	c0.9,1,0,1.8-0.5,2.6c-4.8,8.3-3.6,11.7,5.7,14.9c16.1,5.4,30.4,3.9,42.5-9.7c11.6-13.1,22.4-26.6,27.2-43.9
	c1.8-6.6,2.6-13.3,2.8-20.2c0-1.2,0-2-1-3c-5.4-5.6-5.3-11.2,0.2-16.3c1-0.9,3.1-1.6,1.7-3.3c-1.6-1.8-2.4,0.4-3.4,1.3
	c-8.2,7.4-20.6,7.5-28.4-0.1c-1.6-1.6-2-1-3.4,0c-8.1,5.9-25.8,5.3-31.7-3.7c-1-1.6-1.9-1.4-3.6-1c-8.6,1.7-16-0.9-22.2-7
	c-1-1-2.4-2.1-1.7-3.8c0.7-1.6,2.4-0.9,3.6-0.9c7.2,0.4,12.2-3.7,16.8-8.3c2.4-2.3,4.1-5.2,6.5-7.5c3.8-3.7,3.9-7,0.1-10.8
	c-1.2-1.3-1.9-2.3-4-1.7c-2,0.5-4.3,0.3-6.5,0.3c-1.9,0.1-4.1-0.1-4.7-2c-0.7-2.3,2-2.6,3.4-3.5c-7.1-7.8-5.4-14.2,4.5-17.5
	c2.4-0.8,2.6-4.9,0.2-6.9c-1.3-1-2.8-1.8-4.4-2.3c-6-2-8.7-6.6-9.1-12.4c-0.6-8-0.9-15.9-0.9-23.9c0-7,1.9-8.9,8.6-10.6
	c3-0.8,5.9-1,8.9-0.8c4.6,0.2,8.1,2.4,9.3,6.9c2.6,9.8,3.7,19.9,3.8,30c0.1,3.9-1.8,7.2-5,9.8c-5.2,4.3-4.8,8.2,1,11.9
	c4.4,2.7,4.9,5.8,2.1,11.8c3.7,1.6,5.5,0.1,7.1-3.4c4.9-10.8,7.6-22.1,9.9-33.6c0.8-4.1-1.1-7.7-1.9-11.5c-1.6-7.7-1.6-15.4,0.3-23
	c0.5-1.9,0.8-2.7-1.7-3.2c-2.2-0.5-3.4-2.7-3.5-5c-0.1-2.3,1.7-3.8,3.5-4.4c2.2-0.7,2.1-1.4,1.6-3.4c-1.4-5.5,0.7-7.4,6.1-5.4
	c1.5,0.6,1.7-0.1,2.1-0.9c1.9-3.6,4.8-4.2,8.4-3.2c2.1,0.6,4.6-0.3,5.2-1.8c1.6-4.2,5.8-6.1,7.6-10.2c1.7-4.1,5.8-6,10.2-5.9
	c3.9,0.1,6,2.9,8.2,6.2c4.1,6.1,6.4,13.1,13.4,17.8c13.9,9.4,20.5,23.9,21.4,40.7c0.3,4.5-0.5,9-3.3,12.7c-0.8,1.1-0.7,2.2-0.6,3.3
	c1.8,12.9,7,24.6,14.3,36.2c1.1-3.6,1.5-6.8,2.9-9.5c1.7-3.1,0.8-6.1,0.7-9.1c-0.2-4.2,2.8-5.3,5.8-6.4c4.2-1.5,8.4-2.9,12.7-4
	c1.7-0.5,2.5-1,2.6-2.9c0.1-2.2-1.2-2.2-2.8-2.4c-7-0.9-13-4.1-17.8-9.2c-2.1-2.2-4.9-2.9-7.3-4.6c-5.9-4.3-7.2-10.4-3.1-16.3
	c1.7-2.5,0.5-5.1,0.9-7.7c0.8-4.3-2.8-3.6-5-4.4c-7.4-2.5-8-4.7-2.5-10.3c2.1-2.1,4.4-4.5,7-5.4c3.7-1.4,3.7-3.8,3.6-6.8
	c-0.7-13.3-1.2-26.5-2.1-39.8c-0.3-4.2,1.2-5.5,5.3-5.4c10.1,0.4,20.3,0.5,30.4,0.5c6.6,0,13.3-0.1,19.9-0.8c3.8-0.4,4.3,1,4.6,4.2
	c1.2,11.7,1.8,23.5,3.7,35.2c0.7,4.1,1.5,7.5,6.3,8.4c1.5,0.3,3,1.4,4.4,2.2c6.6,4,6.5,8.2-0.1,12.3c-4.4,2.7-5.9,13.4-2.3,17
	c3.2,3.2,3.5,6.9,1.9,11c-1.7,4.4-5.3,6.5-9.7,6.5c-1.9,0-3.1,0.3-4.2,1.7c-5.3,6.5-12.4,9.8-20.3,11.6c-1.3,0.3-3.1-0.4-3.1,2.1
	c0,1.9,0.6,3,2.4,3.9c2.8,1.4,5.6,2.9,8.2,4.7c4.6,3.2,8.6,6.9,8.6,13.1c0,1.3,0.6,1.8,1.5,2.3c15.9,9.9,39.7,4.8,48.4-10.7
	c-3.6-0.6-7.1-1.1-10.6-1.9c-1.2-0.3-3.3,0.3-3.4-2c-0.1-1.9,1.5-2.4,2.8-3.1C300.5,138.7,301.5,138.6,303,138.3z M190.9,212.8
	c-2,1-4.1,1.8-5.3,3.9c-0.1,0.1,0.7,1.1,0.8,1c2.3-0.7,3.8-2.4,5.3-4.2c0.5-0.7,2-1.4,1.1-2.2C192,210.7,191.4,212.1,190.9,212.8z
	 M120,81.8c-0.8,0-1.6-0.2-2.4-0.1c-1,0.2-2.4,0.1-2.6,1.6c-0.1,0.7,0.1,1.8,0.6,2.2c1.1,0.9,2.1-0.1,3-0.8c0.6-0.5,1.1-1.1,1.7-1.7
	c0.8-0.3,0.9-0.8,0.5-1.5C120.8,81.5,120.3,81.7,120,81.8z M123.3,80.1c-0.2,0.9,0,1.6,0.8,2.1c0.5,1.8-1,3.8,0.5,5.7
	c1.4-2.1,1.6-3.9,0.4-5.7c1.5-3.8,3.2-1.5,4.6-0.1c1.5,1.4,3.1,1.3,4.5,0.4c1.1-0.6,2.2-1.8,1.9-3.2c-0.4-2.2-2.5-1.4-3.7-1.3
	c-4.7,0.2-3.7-1.7-2-4.4c0.8-1.2,2.8-2.8,0.7-4.1c-1.7-1-2.7,1.1-4,2.1c-1.9,1.5,0.1,4.5-2.4,5.6c-1.3,0.3-2.1-2.3-3.3-1
	c-1.3,1.5,1.2,1.9,1.5,3C123.1,79.5,123.2,79.8,123.3,80.1z M225,159.2c0.9-0.7,1-1.6,0.8-2.6c0-0.5,0.1-0.9,0.1-1.4
	c4.5-3.8,5-8.7,3.8-14.1c-1.8,0.4-3.5,0.7-5.3,1.1c-0.8,0.3-1.5,0.6-2.3,0.8c-6.2,2.4-6.6,3.3-3.8,9.3c1.5,3.3,3.3,6.5,5.1,10
	C224.2,160.9,224.6,160.1,225,159.2z M321.3,98.2c0.2,3.7-1.5,7-2.8,11c4.8-3.8,5.4-7.4,3.6-16.6c-0.4-4.9-0.8-9.9-1.1-14.8
	c-0.2-2.4-0.8-3-3.4-2c-3.6,1.5-7.5,2.6-11.6,1.8c-6-1.2-6-1.2-6,4.7c0,0.3,0,0.7,0,1c0,14.1,0,14,14.4,13.8
	C316.7,97.1,319.3,95.8,321.3,98.2z M201.8,326.8c-2.5-3.7-3.9-7.7-4.5-11.7c-2.2-13.4-3.7-27-4.3-40.6c-0.8-18.6-2.5-36.8-9.8-54.4
	c-5.1-12.3-9.8-25-4.4-38.8c0.9-2.4,0.2-5.1-2.6-6.8c-2.7-1.6-4.3,0.6-6.3,1.4c-0.4,0.2-0.9,0.5-1.2,0.9c-2,2.5-3.6,2.5-6.1,0.3
	c-3.1-2.7-6.9-3.8-11.1-2.3c-2.7,1-3.8,2.4-2.1,5c2.1,3.2,4.1,6.4,6.5,9.4c4.5,5.8,7.7,12.3,7.9,19.4c0.2,5.6,1.2,7.7,7.3,7.4
	c7.4-0.3,11.3,7.3,7.4,13.8c-2.5,4.2-6.4,6.7-11.3,7.1c-2.4,0.2-3.2,1-3.5,3.5c-0.8,6.7-0.8,13.7-2.8,20.2
	c-7.1,22.3-20.9,39.7-39.4,53.6c-2.5,1.9-5.4,3.2-8.6,3.7C99.5,320,87,318.2,75.6,309c1.6,5.8,4.6,9.7,8.7,13
	c7.5,5.8,16.1,7.4,25.3,7.2c22.9-0.6,45.8-2.8,68.7-2.3C186,327,193.6,328.7,201.8,326.8z M236.3,25c-7.8,0-15.7,0-23.5,0
	c-2.2,0-4,0.3-3.8,3.2c0.4,5.3,0.2,10.6,0.6,15.9c0.7,9.8,1.9,19.5,1.3,29.3c-0.1,1.8-0.7,4.2-2.6,3.3c-4.7-2.1-6.1,1.8-8.4,3.9
	c-3,2.7-2.5,4.5,1.4,5.2c5.7,1,11.3,2.2,17.2,2.2c14.6,0.1,29.2-1.1,43.6-3.3c5.6-0.9,11.5-1.8,16.3-5.5c1.2-0.9,3-1.6,1.5-3.4
	c-1.7-2.1-4.1-3.8-6.8-3.6c-2.2,0.1-0.4,2.1-0.4,3.2c0,1.3,0.5,2.9-1.4,3.2c-1.5,0.2-1.8-1.2-2.2-2.3c-0.6-1.4-1-2.8-1.4-4.3
	c-4-14.3-5-29-5.9-43.7c-0.2-2.9-0.5-3.8-3.8-3.6C251,25.3,243.6,25,236.3,25z M182,132.6c2.6,1.3,4.5,0.6,5.8-1
	c4.7-5.5,9.1-11.4,8.1-19.1c-2.3-17.6-9.6-32.3-25.9-41c-2.8-1.5-4.4-2.6-4.1-6c0.2-2-0.9-3.9-2.8-4.9c-1.4-0.8-2.6-1.7-2.6-3.3
	c0.1-2.8-1.5-3.9-3.7-4.2c-2.6-0.3-6.8-0.4-7.2,1.7c-0.9,4.7-5.7,5.5-7.1,9.2c-0.9,2.4-2,4.4-4.9,4.8c-1.9,0.2-2,2-2.4,3.4
	c-0.3,1.3,0.4,1.6,1.5,2c3.2,0.9,3.8,3.6,3.6,6.4c-0.3,3.1-1.7,6.2-5,6.7c-4.3,0.7-8.1,1.8-10.9,5.3c-0.3,0.4-1,0.8-1.3,0.7
	c-5.9-2.1-4.1,3.2-4.4,5.2c-0.7,4.2-1.1,8.8-0.2,12.9c1,4.5,1.2,9.6,5,13.6c2.1-4.6,3.7-9.2,7.7-12.2c7.5-5.5,14.7-11.3,21.7-17.4
	c0.8-0.7,1.6-1.6,2.6-1c1.2,0.7,1,2.1,0.6,3.1c-0.8,2.4-1.8,4.8-2.8,7.3c8-2,9.9-9.1,12.6-15c1.2-2.6,2.1-3.6,3.6-1.4
	c1.3,2,3.1,1.7,4.7,2.2c8.9,3.1,14.4,10.4,15,19.8C189.6,118.7,186.9,125.9,182,132.6z M72.2,204.7c6.7,4.7,12.7,7,19.7,3.8
	c1.7-0.8,3.3-1.6,4.2,1.3c2.6,9.3,23.2,11.6,29.9,2.5c2-2.8,2.9-3.1,4.6,0.2c2.9,5.8,8.5,8.4,14.9,7.1c4.8-1,8.1-4.4,12-6.9
	c5.8-3.7,2.4-6.8,1.6-10.1c-1.8-8.2-8.7-13.4-12.5-20.6c-15.2,12.2-27.5,13.4-41.9,3.2c-4-2.8-5.4-2-7.8,1.6
	C91.1,195.4,84.3,202.7,72.2,204.7z M120.6,128.6c-0.4,2.3-0.7,4.8-1.2,7.4c-2.8,14.3-8.7,27.3-15.7,40c-0.7,1.2-2.3,2.1-0.4,4.1
	c7.7,8.2,25.3,11.2,34,4.7c6.9-5.1,11.5-12.6,18.2-18.2c4.8-4,0.9-17.5-4.5-18.4C138.2,145.8,130.9,135.4,120.6,128.6z M181.4,136
	c-6.6-1.1-4.9-3.1-1.8-6.3c4.7-4.8,6.7-11.3,6.2-17.8c-0.5-6.2-5.2-10.8-8.4-15.9c-1.5-2.4-5-2.6-7.7-2.8c-2.4-0.2-2.1,2.9-3.2,4.5
	c-3.3,4.7-7.1,8.7-12.6,10.8c-2.8,1-6.8,3-8.5,1.3c-3.5-3.7-4.7-0.1-6.3,1.2c-3,2.4-5.7,5.1-8.3,7.8c-5.5,5.8-4.1,10.3,3.7,12.2
	c1.6,0.4,3.6,1.1,1.7,2.7c-2.5,2.1-0.4,2.7,0.6,3.6C149.7,149.1,168,148.8,181.4,136z M198.6,203.4c3.6-7.4,5.3-15.2,6.3-23.2
	c0.7-5.9,3-11.7-0.9-18c-5.3-8.5-10.3-17.3-11.3-27.7c-0.3-2.9-2-1.4-3.4-0.2c-7.6,6.4-15.1,13.1-25.5,14.4
	c-2.3,0.3-1.8,2.1-1.9,3.4c-0.5,9.1,4.5,16,13.6,18.8c2.4,0.7,4.6,1.7,5.6,4.3c3.2,8.1,8.9,14.8,12.6,22.6
	C194.8,200,196,202.2,198.6,203.4z M211.3,176.6c-0.4,3.1-1,6.1-1.3,9.2c-1.1,11-2,22.1-3.3,33.1c-1.7,15.2-1.8,30.4-0.6,45.6
	c0.3,3.7,1.5,6.1,6.1,4.4c3.1-1.1,6.4-1.5,9.7-1.8c2.1-0.2,2.6-0.6,2.4-3c-0.4-4.9-1.7-9.8-1.2-14.8c1-9.7,2-19.4,2.8-29.1
	c0.2-2.5,0.8-5.7-0.4-7.3c-4.5-5.6-4.7-12.6-7-18.8C216.4,188.1,215.6,181.8,211.3,176.6z M251.2,182.8
	c-5.5,8.9-10.4,16.5-17.2,22.8c-3,2.8-3.7,6.4-4,10.4c-0.4,5.6-1.3,11.2-1.7,16.8c-0.6,10.2-2.6,20.4-0.3,30.7
	c0.4,2.1,1,3.4,3.3,3.5c7.3,0.3,14.6,0.6,21.9,1c3.8,0.2,4.1-1.1,2.8-4.4c-5-11.9-7.5-24.3-7.9-37.2c-0.1-2.1-0.9-3.2-2.6-4.3
	c-7.6-4.8-7.8-12.6-0.4-17.6c2-1.3,3.2-3.1,3.6-5.2C249.6,194.4,250.2,189.3,251.2,182.8z M223.9,97.9c-2.8,0-5.7,0-8.5,0
	c-1.2,0-2.2-0.1-2.6,1.5c-1.2,4.5,2.9,20,6.2,22.7c8.5,7,26.2,7.8,35.3,1.6c0.8-0.5,2.7-1.5,1.1-2.5c-3.3-2.2-1.1-3.7,0.1-5.6
	c3.2-4.9,5.8-10,6.4-15.9c0.7-6.8,0.7-6.8-6.1-5.5C245.4,96.2,234.8,98.2,223.9,97.9z M210.9,273.3c-6.9,2-7.4,1.7-7.9-4.9
	c-0.4-4.1-0.9-8.3-1-12.4c-0.5-12-0.4-23.9,0.9-35.9c0.2-1.6,1.5-4.1-1.5-5c-2.6-0.8-4.5-1-7.5,1c-6.4,4.5-6.5,9.2-3.3,15.3
	c0.8,1.4,1,3.2,1.4,4.8c4.2,15.9,3.4,32.3,4.9,48.5c1,10.7,1.7,21.5,4.1,32c0.8,3.4,1.7,6.9,5.3,9.6
	C209.2,308.4,211.2,291.1,210.9,273.3z M252.3,349.7c-3.2,0.8-5.9,1.1-8.3,2c-4.2,1.7-5.3,0.1-5.1-3.9c0.1-3.1,0-6.3-0.3-9.5
	c-1.9-21.1-3.8-42.3-5.7-63.4c-0.2-1.6,1.3-4.3-2.4-4.2c-3.5,0.1-2.3,2.7-2.3,4.4c-0.4,22.7-0.2,45.5-3.2,68.1
	c-1.2,8.7-0.8,8.8-9.3,8.6c-1.2,0-3-0.9-3.5,0.8c-0.5,1.8,0.8,3,2.4,3.9c3.8,2,8,3.2,11.4,5.9c0.8,0.7,1.4,0.1,2.2-0.2
	c5.6-1.9,11.3-3.6,16.8-5.7C248.1,355.6,250.9,354.1,252.3,349.7z M225,286.9c0-3.8,0-7.6,0-11.5c0-2.5,0.1-5.1-3.5-4.4
	c-3,0.6-7.7-1-7.5,4.7c0.9,21.2-2.9,41.9-6.2,62.6c-0.4,2.8-1.8,6-0.9,8.2c1.3,3.2,5.2,0.9,7.9,1.5c5.9,1.2,6.4,0.8,7-5.1
	C224,324.3,224.2,305.6,225,286.9z M240.1,271c-1.3,0.4-4.3-0.9-3.7,2.1c0.8,3.8,0.2,7.6,0.8,11.4c2.6,19.2,4.1,38.5,4.9,57.8
	c0.1,2.4-0.3,4.8,2.9,5.4c2.2,0.4,12.5-2.9,12.8-4.1c0.1-0.5-0.1-1-0.2-1.5c-1.5-7.4-3.1-14.9-4.2-22.4c-2.1-13.7-4.4-27.4-5.3-41.2
	C247.6,272.4,246.5,271,240.1,271z M186.6,330.5c0,0.1,0,0.2,0,0.3c-3.7,0-7.3-0.1-11,0.1c-1.6,0.1-4-2.2-4.6,0.6
	c-0.5,2.6-0.6,6.1,2.7,7.3c4.6,1.6,5.8,5.2,6.2,9.3c0.3,2.5,0.6,5.1,2,7.1c2.1,3,4.2,7,8.7,5.8c5.6-1.4,10.9-3.7,16.4-5.5
	c1.5-0.5,2.2-1.2,1.9-2.8c-0.4-2-1.6-1-2.6-0.8c-3.1,0.4-4.6-0.1-3.6-4c1.2-4.8,1.7-9.8,2.4-14.7c0.2-1.4,0.8-2.8-2-2.6
	C197.6,330.9,192.1,330.5,186.6,330.5z M227.2,204.6c2.3,0.1,2.8-1.5,3.4-3.1c3.3-8.7,6.6-17.4,10-26c0.7-1.8,1-3.7,0.2-5.3
	c-2.4-4.8-4.1-9.8-6-14.8c-0.7-1.9-2.4-3-3.6-0.7c-3.3,6.1-7.8,12.2-7.6,19.3C223.8,184.2,224.9,194.5,227.2,204.6z M75.6,102.3
	c0.8,10.2-0.6,20.3,2.3,30.1c0.5,1.8,1.7,3.3,4.1,3.5c-0.9-1.5-1.6-2.6-2.3-3.7c-0.3-0.6-0.6-1.2-0.8-1.8c-2-4.8-1.3-6,3.7-6.2
	c4.7-0.1,9.2-0.5,13.7-2.1c1.3-0.5,2.8-0.3,2.3-2.3c-1.3-6.1-0.7-12.5-3.1-18.4C89.4,105.2,83,104.7,75.6,102.3z M243.3,166.7
	c1.1-0.7,2.1-1.2,3-2c4-3.6,10.6-6,10.2-11.9c-0.4-6.8-7.5-9-12.7-12.1c-0.4-0.2-0.9-0.2-1.4-0.2c-1.2,3.5,1.7,8.4-3.9,10.2
	c-0.4,0.1-0.5,1.9-0.3,2.8C239.3,158,240.6,162.7,243.3,166.7z M181.6,183.9c-2.7,9.3-1.4,17.2,1.1,25.2c1.2,3.9,2.9,3.4,5.1,1.4
	c2.4-2.2,4.5-4.9,8.7-2.4C190.4,200.8,187.7,192,181.6,183.9z M185.3,363.4c-5.9-3.9-7.8-9-8.5-14.8c-0.2-1.9-1.3-3.7-2.2-5.5
	c-1.1-2.1-3.1-1.2-4.8-1c-2.1,0.2-2,1.8-2,3.4c0.1,5.8,1.2,11.5,2.6,17.1c0.3,1.1,0.3,3,2.4,2.2
	C176.5,363.2,180.4,364.6,185.3,363.4z M218,93.7c8,0.3,15.9,0.9,23.9-0.6c6.7-1.3,13.4-2.1,20.1-3.2c3.1-0.5,4.1,0.6,4.1,3.7
	c0.1,6.6-1.4,12.8-4.3,18.7c-0.6,1.2-1.6,2.5-0.1,3.4c1.2,0.6,2-0.9,2.6-1.9c5-7.5,5.8-16,6.3-24.6c0.2-2.9-1.7-2.1-3.3-1.8
	c-5.9,1.1-11.8,1.9-17.6,2.8C239.1,91.7,228.3,90.5,218,93.7z M133.5,352.3c0.7-4-0.1-7.6-0.3-11.3c-0.1-1.5,0.6-3.7-1.8-4.1
	c-2.4-0.3-2.4,1.9-2.8,3.4c-2.3,7.9-2.3,16-2.5,24.1c0,0.6,0.4,1.7,0.5,1.7c2.8-0.1,5.9,0.3,8.4-0.7c1.9-0.8-0.3-3-0.4-4.6
	C134.2,357.9,133.8,355,133.5,352.3z M251.8,220c5.5,0,9.4-2.5,9.3-6.1c-0.1-3.5-4-7.3-7.5-7.3c-6.4,0-9.7,2.2-9.7,6.7
	C243.8,217.7,246.5,220,251.8,220z M165,232.9c7.2-0.5,11-2.9,11.2-7.6c0.1-4.1-2.4-6-6.2-6.2c-3.9-0.3-10.9,5.4-11,8.7
	C158.9,231,159.9,233.3,165,232.9z M87.8,165.1c3.3-0.6,6.6-1.8,9.4-3.9c3.2-2.3,2.7-5.2-0.9-6.7c-3.3-1.4-6.7-1.5-10.2-0.5
	c-2.8,0.9-5.4,2.4-4.9,5.8C81.8,163.2,84.6,164.5,87.8,165.1z M314,127c-5.8,0-10.5,2.3-9.9,5.3c1.1,4.9,5.8,4.8,9.5,5.7
	c1.7,0.4,3.6,0,5.3-0.9c1.9-1,3.1-2.3,3.1-4.6c0-2.1-1.2-3.4-2.7-4.4C317.7,126.8,315.8,126.9,314,127z M236.7,195.5
	c5.7-6.7,11.1-13.5,14.6-21.6c0.7-1.6,0.6-3.2-1.1-3.6c-1.5-0.3-3.8-1.1-4.7,1.3C242.5,179.5,239.6,187.5,236.7,195.5z M220.2,187.1
	c0.8-5,0.1-9.7-1-14.4c-0.3-1.4-0.9-2.9,0.8-3.9c1.2-0.7,2.3-2.2,1.4-3.2c-1.3-1.4-3.5-2-5.5-1.3c-1.7,0.6-2.1,2.1-1.7,3.7
	C216.2,174.4,218.2,180.7,220.2,187.1z M95.8,126.3c-4.9,0.7-9.1,1.3-13.6,2c1.5,3.7,3,7.8,7.4,7.5
	C94.7,135.5,94.5,130.5,95.8,126.3z M311,100.9c-6.7,0.1-6.7,0.1-6.7,1.6c0,2.3,4.1,7.4,6,7.4c2.2,0.1,7.2-5.1,6.6-7.3
	C315.8,99.2,312.6,101.7,311,100.9z M161,164.4c-1.5,2.5-2.6,4.4-4.1,6.9c4.4-0.7,7.6,6.5,12.4,0.4
	C165.9,169.9,163.6,167.4,161,164.4z M269,113.5c5.3,0.3,8.7-4.1,7-8.9c-0.4-1-0.9-1.8-2.1-1.8c-1.2,0-1.6,0.8-1.9,1.8
	C271.1,107.7,270,110.6,269,113.5z M302.1,72.3c6.1,2.8,11,1.8,16.3-0.9C312.9,70,307.9,68.8,302.1,72.3z M78.7,98.8
	c5,2,9.9,2.8,15.1-1.2C87.9,95.9,83.2,96.7,78.7,98.8z M99.6,176.2c1.1-2.1,2.1-3.9,3.4-6.2c-2.6,0.6-4.4,1-6.3,1.5
	C96.8,173.2,98,174.4,99.6,176.2z M237.1,146.7c1.7-0.4,1.1-1.9,1.2-3.1c0.1-1.7-0.5-2.9-2.5-2.8c-1.9,0.1-1.7,1.4-1.9,2.8
	C233.7,145.9,235.4,146.1,237.1,146.7z M204.5,104.5c-1.1,4.6,0.5,6.9,3.3,8.8C206.9,110.7,206,108.2,204.5,104.5z"/>
<path id="XMLID_299_" style="fill:#1D1D1C;" d="M72.1,86c0.1,1.1,0.1,2.1-1.3,2.3c-1.3,0.2-1.6-0.6-2-1.6
	c-2.9-7.8-8.2-13.5-15.6-17.2c-0.9-0.4-2.4-0.8-1.6-2.5c0.5-1.1,1.6-1.1,2.6-1C60.1,66.8,72,80.1,72.1,86z"/>
<path id="XMLID_298_" style="fill:#1D1D1C;" d="M340.7,38.1c-0.2,0.2-0.9,0.6-1.6,1.1c-6.6,4.8-12,10.4-13.3,18.9
	c-0.2,1.3-1,2.1-2.5,1.8c-1.7-0.3-1.5-1.6-1.2-2.7c2.1-9.2,7.4-16.1,15.2-21.2C338.8,35.1,340.7,36.1,340.7,38.1z"/>
<path id="XMLID_297_" style="fill:#1D1D1C;" d="M346,44.8c1.2,0.1,2.5-0.2,2.8,1c0.5,1.5-0.7,2-1.9,2.4c-6,1.9-12.1,3.6-15.9,9.4
	c-0.6,0.9-1.9,0.9-2.6,0c-0.9-1.1-0.2-2.1,0.5-3.1C333.1,48.4,339.6,46.5,346,44.8z"/>
<path id="XMLID_296_" style="fill:#1D1D1C;" d="M48.5,76c5.7,1.1,11.5,2.3,15.9,6.8c1,1,2.7,2.3,1.3,3.8c-1.3,1.5-2.6,0.1-3.7-1
	c-3.9-4.1-9.1-5.1-14.3-5.9c-1.4-0.2-3.5-0.4-3.3-2.3C44.8,75.3,46.9,76.2,48.5,76z"/>
<path id="XMLID_295_" style="fill:#F9F9F8;" d="M201.8,326.8c-8.2,1.9-15.8,0.3-23.4,0.1c-23-0.5-45.8,1.7-68.7,2.3
	c-9.1,0.2-17.8-1.4-25.3-7.2c-4.1-3.2-7.2-7.2-8.7-13c11.4,9.3,23.9,11,37.2,9.1c3.2-0.5,6.1-1.8,8.6-3.7
	c18.4-14,32.3-31.4,39.4-53.6c2.1-6.5,2-13.4,2.8-20.2c0.3-2.5,1.1-3.3,3.5-3.5c4.9-0.4,8.8-2.9,11.3-7.1c3.9-6.5,0-14.1-7.4-13.8
	c-6.2,0.3-7.2-1.8-7.3-7.4c-0.2-7.2-3.4-13.7-7.9-19.4c-2.3-3-4.4-6.2-6.5-9.4c-1.7-2.6-0.6-4,2.1-5c4.2-1.5,8-0.4,11.1,2.3
	c2.5,2.2,4.2,2.2,6.1-0.3c0.3-0.4,0.7-0.7,1.2-0.9c2-0.8,3.6-3,6.3-1.4c2.8,1.7,3.6,4.3,2.6,6.8c-5.3,13.8-0.6,26.5,4.4,38.8
	c7.3,17.5,9,35.8,9.8,54.4c0.6,13.6,2,27.1,4.3,40.6C197.9,319.1,199.3,323.1,201.8,326.8z"/>
<path id="XMLID_294_" style="fill:#3A494C;" d="M236.3,25c7.3,0,14.7,0.3,22-0.1c3.3-0.2,3.6,0.7,3.8,3.6
	c0.9,14.7,1.8,29.4,5.9,43.7c0.4,1.4,0.8,2.9,1.4,4.3c0.4,1,0.8,2.5,2.2,2.3c1.8-0.3,1.3-1.9,1.4-3.2c0-1.1-1.8-3.1,0.4-3.2
	c2.7-0.2,5.1,1.5,6.8,3.6c1.5,1.8-0.4,2.5-1.5,3.4c-4.8,3.7-10.7,4.7-16.3,5.5c-14.4,2.2-29,3.3-43.6,3.3c-5.9,0-11.5-1.2-17.2-2.2
	c-3.9-0.7-4.5-2.5-1.4-5.2c2.3-2,3.7-6,8.4-3.9c1.9,0.9,2.5-1.5,2.6-3.3c0.6-9.8-0.7-19.6-1.3-29.3c-0.4-5.3-0.2-10.6-0.6-15.9
	c-0.2-2.9,1.6-3.2,3.8-3.2C220.6,25,228.5,25,236.3,25z"/>
<path id="XMLID_293_" style="fill:#BA836D;" d="M182,132.6c5-6.6,7.7-13.9,7-22.2c-0.7-9.3-6.2-16.6-15-19.8
	c-1.5-0.5-3.3-0.2-4.7-2.2c-1.5-2.2-2.4-1.2-3.6,1.4c-2.7,5.9-4.6,12.9-12.6,15c1-2.5,2-4.8,2.8-7.3c0.3-1,0.6-2.5-0.6-3.1
	c-1-0.6-1.8,0.3-2.6,1c-7,6.1-14.2,11.9-21.7,17.4c-4,2.9-5.6,7.5-7.7,12.2c-3.7-3.9-4-9-5-13.6c-0.9-4.1-0.4-8.6,0.2-12.9
	c0.3-2.1-1.5-7.3,4.4-5.2c0.3,0.1,1-0.3,1.3-0.7c2.8-3.5,6.6-4.7,10.9-5.3c3.3-0.5,4.7-3.5,5-6.7c0.3-2.8-0.4-5.4-3.6-6.4
	c-1.1-0.3-1.9-0.6-1.5-2c0.4-1.4,0.5-3.2,2.4-3.4c3-0.3,4-2.4,4.9-4.8c1.5-3.7,6.2-4.6,7.1-9.2c0.4-2.1,4.6-2.1,7.2-1.7
	c2.3,0.3,3.8,1.5,3.7,4.2c-0.1,1.5,1.2,2.5,2.6,3.3c1.9,1.1,3.1,3,2.8,4.9c-0.4,3.4,1.3,4.5,4.1,6c16.3,8.7,23.6,23.5,25.9,41
	c1,7.6-3.4,13.6-8.1,19.1C186.4,133.1,184.6,133.8,182,132.6z"/>
<path id="XMLID_292_" style="fill:#F9F9F8;" d="M72.2,204.7c12.1-1.9,18.9-9.3,24.6-17.9c2.4-3.6,3.8-4.4,7.8-1.6
	c14.4,10.1,26.7,9,41.9-3.2c3.8,7.1,10.7,12.3,12.5,20.6c0.8,3.4,4.2,6.5-1.6,10.1c-3.9,2.5-7.2,5.9-12,6.9
	c-6.3,1.3-12-1.2-14.9-7.1c-1.6-3.3-2.5-3-4.6-0.2c-6.7,9.2-27.3,6.8-29.9-2.5c-0.8-2.9-2.4-2.1-4.2-1.3
	C84.9,211.7,78.9,209.4,72.2,204.7z"/>
<path id="XMLID_291_" style="fill:#F9F9F8;" d="M120.6,128.6c10.3,6.7,17.5,17.2,30.4,19.5c5.4,1,9.3,14.4,4.5,18.4
	c-6.7,5.6-11.3,13.1-18.2,18.2c-8.7,6.4-26.3,3.5-34-4.7c-1.9-2-0.3-2.9,0.4-4.1c6.9-12.7,12.9-25.7,15.7-40
	C119.9,133.5,120.3,130.9,120.6,128.6z"/>
<path id="XMLID_287_" style="fill:#EEBF98;" d="M181.4,136c-13.4,12.8-31.7,13.1-44.5,1.3c-1-0.9-3.2-1.5-0.6-3.6
	c1.9-1.6-0.1-2.3-1.7-2.7c-7.8-1.9-9.2-6.4-3.7-12.2c2.6-2.8,5.4-5.5,8.3-7.8c1.6-1.3,2.8-5,6.3-1.2c1.7,1.8,5.7-0.2,8.5-1.3
	c5.5-2,9.3-6.1,12.6-10.8c1.1-1.5,0.7-4.6,3.2-4.5c2.7,0.2,6.2,0.4,7.7,2.8c3.2,5,8,9.7,8.4,15.9c0.5,6.5-1.6,12.9-6.2,17.8
	C176.5,132.8,174.7,134.8,181.4,136z M148.5,121.2c-0.1-0.3-0.7-1.1-2-1.3c-2-0.4-3.9-0.2-5.7,0.9c-1.8,1.1-3.8,2.6-5.2-0.6
	c-0.4-0.8-1.3-1-2-0.2c-0.6,0.7-1.5,1.2-1.4,2.5c0.2,4.2,2.6,5.6,6.5,3.8c1.4-0.6,2.4-2.1,4.4-1
	C146.3,127.1,148.4,125.7,148.5,121.2z M168.3,123.3c2.5-1.8,6.2,0.1,8.5-2.7c0.6-0.8,1.4-1.5,0.9-2.6c-0.4-0.9-1.6-1.4-2-0.9
	c-2.9,3.1-5.6,0.9-8.5-0.1c-2.7-0.9-5,0.9-5.5,3c-0.6,2.5,2,2.6,4,2.5C166.6,122.6,167.4,123,168.3,123.3z"/>
<path id="XMLID_286_" style="fill:#F9F9F8;" d="M198.6,203.4c-2.5-1.2-3.8-3.5-4.8-5.6c-3.7-7.8-9.5-14.5-12.6-22.6
	c-1-2.6-3.2-3.5-5.6-4.3c-9-2.8-14.1-9.7-13.6-18.8c0.1-1.3-0.4-3.1,1.9-3.4c10.4-1.4,17.9-8.1,25.5-14.4c1.3-1.1,3.1-2.6,3.4,0.2
	c1.1,10.4,6,19.2,11.3,27.7c3.9,6.3,1.6,12.1,0.9,18C203.9,188.2,202.2,196.1,198.6,203.4z"/>
<path id="XMLID_285_" style="fill:#3A494C;" d="M211.3,176.6c4.2,5.3,5,11.6,7.2,17.4c2.3,6.3,2.5,13.2,7,18.8
	c1.2,1.6,0.6,4.8,0.4,7.3c-0.8,9.7-1.7,19.4-2.8,29.1c-0.5,5,0.8,9.9,1.2,14.8c0.2,2.4-0.2,2.8-2.4,3c-3.3,0.4-6.7,0.7-9.7,1.8
	c-4.6,1.7-5.8-0.7-6.1-4.4c-1.2-15.2-1.1-30.4,0.6-45.6c1.2-11,2.1-22.1,3.3-33.1C210.4,182.7,210.9,179.6,211.3,176.6z"/>
<path id="XMLID_284_" style="fill:#3A494C;" d="M251.2,182.8c-1,6.5-1.5,11.6-2.5,16.6c-0.4,2-1.6,3.8-3.6,5.2
	c-7.4,5-7.3,12.7,0.4,17.6c1.7,1.1,2.6,2.1,2.6,4.3c0.3,12.9,2.9,25.3,7.9,37.2c1.4,3.3,1,4.6-2.8,4.4c-7.3-0.4-14.6-0.7-21.9-1
	c-2.3-0.1-2.9-1.4-3.3-3.5c-2.2-10.3-0.3-20.5,0.3-30.7c0.3-5.6,1.3-11.2,1.7-16.8c0.3-3.9,1-7.6,4-10.4
	C240.7,199.3,245.7,191.7,251.2,182.8z"/>
<path id="XMLID_280_" style="fill:#EEBF98;" d="M223.9,97.9c10.9,0.3,21.5-1.7,32.1-3.7c6.7-1.2,6.7-1.3,6.1,5.5
	c-0.6,5.9-3.2,11.1-6.4,15.9c-1.2,1.8-3.5,3.4-0.1,5.6c1.6,1-0.3,1.9-1.1,2.5c-9.1,6.2-26.8,5.3-35.3-1.6
	c-3.3-2.7-7.4-18.2-6.2-22.7c0.4-1.6,1.4-1.5,2.6-1.5C218.2,98,221.1,97.9,223.9,97.9z M249.4,106.7c1.2,0.3,2.4,0.5,2.7-1.1
	c0.2-1.4-0.5-2.3-1.8-2.4c-2.5-0.2-4.9-0.2-7.4-0.1c-1.1,0.1-2.9-0.6-2.8,1.6c0.1,2,1.5,2.5,3.1,2
	C245.3,106.1,247.4,105.6,249.4,106.7z M219.6,106c1.3,0,2.3-0.1,3.2,0c1.3,0.2,2.9,0.9,3.2-1c0.5-2.3-1.6-2-2.9-2.3
	c-0.8-0.2-1.6-0.6-2.4-0.5c-2.4,0.2-6.3-0.1-6.3,2.3C214.4,108.5,218.1,104.7,219.6,106z"/>
<path id="XMLID_279_" style="fill:#F9F9F8;" d="M210.9,273.3c0.3,17.8-1.7,35.1-4.6,52.9c-3.6-2.7-4.5-6.2-5.3-9.6
	c-2.5-10.5-3.1-21.3-4.1-32c-1.5-16.2-0.7-32.6-4.9-48.5c-0.4-1.6-0.6-3.3-1.4-4.8c-3.2-6.1-3.1-10.8,3.3-15.3c2.9-2,4.8-1.8,7.5-1
	c3,0.9,1.6,3.5,1.5,5c-1.3,12-1.3,23.9-0.9,35.9c0.2,4.1,0.7,8.3,1,12.4C203.6,275,204,275.3,210.9,273.3z"/>
<path id="XMLID_278_" style="fill:#F9F9F8;" d="M252.3,349.7c-1.4,4.4-4.2,5.9-7.2,7c-5.6,2-11.2,3.7-16.8,5.7
	c-0.8,0.3-1.4,0.8-2.2,0.2c-3.4-2.8-7.6-4-11.4-5.9c-1.6-0.8-2.9-2.1-2.4-3.9c0.5-1.7,2.3-0.8,3.5-0.8c8.5,0.1,8.1,0.1,9.3-8.6
	c3.1-22.6,2.8-45.4,3.2-68.1c0-1.7-1.2-4.2,2.3-4.4c3.6-0.1,2.2,2.5,2.4,4.2c1.9,21.1,3.8,42.3,5.7,63.4c0.3,3.1,0.4,6.3,0.3,9.5
	c-0.2,4,0.9,5.6,5.1,3.9C246.5,350.8,249.1,350.5,252.3,349.7z"/>
<path id="XMLID_277_" style="fill:#3A494C;" d="M225,286.9c-0.8,18.7-1,37.4-3,56c-0.6,5.9-1.1,6.3-7,5.1c-2.7-0.6-6.6,1.8-7.9-1.5
	c-0.9-2.2,0.4-5.5,0.9-8.2c3.3-20.7,7.1-41.4,6.2-62.6c-0.2-5.6,4.5-4.1,7.5-4.7c3.6-0.7,3.5,1.9,3.5,4.4
	C224.9,279.2,225,283.1,225,286.9z"/>
<path id="XMLID_276_" style="fill:#3A494C;" d="M240.1,271c6.4,0,7.5,1.4,8,7.6c1,13.8,3.3,27.5,5.3,41.2c1.1,7.5,2.7,14.9,4.2,22.4
	c0.1,0.5,0.3,1,0.2,1.5c-0.3,1.2-10.6,4.5-12.8,4.1c-3.2-0.6-2.8-3.1-2.9-5.4c-0.8-19.3-2.2-38.6-4.9-57.8c-0.5-3.8,0-7.6-0.8-11.4
	C235.7,270.1,238.8,271.4,240.1,271z"/>
<path id="XMLID_275_" style="fill:#F9F9F8;" d="M186.6,330.5c5.5,0,11,0.3,16.4-0.1c2.8-0.2,2.2,1.2,2,2.6
	c-0.7,4.9-1.1,9.9-2.4,14.7c-1,3.9,0.5,4.4,3.6,4c1-0.1,2.3-1.2,2.6,0.8c0.3,1.6-0.4,2.3-1.9,2.8c-5.5,1.8-10.8,4-16.4,5.5
	c-4.5,1.2-6.6-2.8-8.7-5.8c-1.4-2-1.8-4.6-2-7.1c-0.4-4.1-1.6-7.6-6.2-9.3c-3.3-1.2-3.2-4.6-2.7-7.3c0.6-2.8,3-0.5,4.6-0.6
	c3.7-0.2,7.3-0.1,11-0.1C186.6,330.7,186.6,330.6,186.6,330.5z"/>
<path id="XMLID_274_" style="fill:#D9597B;" d="M227.2,204.6c-2.3-10-3.3-20.3-3.6-30.6c-0.2-7.1,4.3-13.1,7.6-19.3
	c1.2-2.3,2.9-1.2,3.6,0.7c1.9,5,3.6,10,6,14.8c0.8,1.7,0.5,3.5-0.2,5.3c-3.4,8.7-6.7,17.3-10,26C230,203.1,229.4,204.7,227.2,204.6z
	"/>
<path id="XMLID_273_" style="fill:#F9F9F8;" d="M75.6,102.3c7.4,2.4,13.8,2.9,20-1c2.4,5.9,1.8,12.3,3.1,18.4c0.4,2-1.1,1.9-2.3,2.3
	c-4.4,1.6-9,2-13.7,2.1c-5,0.1-5.7,1.4-3.7,6.2c0.3,0.6,0.5,1.2,0.8,1.8c0.7,1.2,1.4,2.3,2.3,3.7c-2.4-0.2-3.6-1.6-4.1-3.5
	C75,122.5,76.4,112.5,75.6,102.3z"/>
<path id="XMLID_272_" style="fill:#F9F9F8;" d="M321.3,98.2c-2-2.4-4.6-1.1-6.8-1C300,97.4,300,97.5,300,83.4c0-0.3,0-0.7,0-1
	c0-6,0-5.9,6-4.7c4.1,0.8,7.9-0.3,11.6-1.8c2.5-1.1,3.2-0.4,3.4,2c0.3,4.9,0.7,9.9,1.1,14.8C321.3,94.4,322.7,96.5,321.3,98.2z"/>
<path id="XMLID_271_" style="fill:#BA836D;" d="M243.3,166.7c-2.8-4-4-8.6-5.1-13.3c-0.2-0.9-0.1-2.6,0.3-2.8
	c5.5-1.8,2.7-6.7,3.9-10.2c0.5,0.1,1.1,0,1.4,0.2c5.2,3.1,12.3,5.3,12.7,12.1c0.4,5.9-6.3,8.3-10.2,11.9
	C245.5,165.4,244.4,166,243.3,166.7z"/>
<path id="XMLID_270_" style="fill:#F9F9F8;" d="M181.6,183.9c6.1,8.1,8.8,16.9,14.9,24.2c-4.2-2.5-6.3,0.2-8.7,2.4
	c-2.1,2-3.8,2.5-5.1-1.4C180.2,201.1,178.9,193.2,181.6,183.9z"/>
<path id="XMLID_269_" style="fill:#F9F9F8;" d="M185.3,363.4c-4.9,1.2-8.8-0.1-12.4,1.3c-2.1,0.8-2.1-1.1-2.4-2.2
	c-1.4-5.6-2.6-11.3-2.6-17.1c0-1.6-0.1-3.1,2-3.4c1.7-0.2,3.7-1.1,4.8,1c0.9,1.7,1.9,3.6,2.2,5.5
	C177.5,354.3,179.3,359.4,185.3,363.4z"/>
<path id="XMLID_268_" style="fill:#BA836D;" d="M218,93.7c10.3-3.2,21.1-2,31.6-3.6c5.9-0.9,11.8-1.6,17.6-2.8
	c1.6-0.3,3.5-1.1,3.3,1.8c-0.5,8.6-1.3,17.2-6.3,24.6c-0.6,0.9-1.4,2.5-2.6,1.9c-1.6-0.8-0.5-2.2,0.1-3.4c2.9-5.9,4.4-12.1,4.3-18.7
	c0-3.1-1.1-4.2-4.1-3.7c-6.7,1.1-13.4,1.9-20.1,3.2C233.9,94.6,225.9,94,218,93.7z"/>
<path id="XMLID_267_" style="fill:#F9F9F8;" d="M133.5,352.3c0.3,2.6,0.7,5.6,1,8.5c0.2,1.6,2.4,3.8,0.4,4.6c-2.5,1-5.5,0.6-8.4,0.7
	c-0.2,0-0.5-1.1-0.5-1.7c0.3-8.1,0.2-16.2,2.5-24.1c0.4-1.5,0.5-3.7,2.8-3.4c2.4,0.3,1.7,2.6,1.8,4.1
	C133.4,344.7,134.2,348.3,133.5,352.3z"/>
<path id="XMLID_266_" style="fill:#EEBF98;" d="M251.8,220c-5.2,0-8-2.3-7.9-6.7c0-4.5,3.3-6.7,9.7-6.7c3.5,0,7.4,3.9,7.5,7.3
	C261.1,217.5,257.3,220,251.8,220z"/>
<path id="XMLID_265_" style="fill:#EEBF98;" d="M165,232.9c-5.1,0.4-6-2-6-5.2c0-3.3,7.1-9,11-8.7c3.8,0.2,6.3,2.2,6.2,6.2
	C176,230,172.2,232.4,165,232.9z"/>
<path id="XMLID_264_" style="fill:#EEBF98;" d="M87.8,165.1c-3.2-0.6-6-1.9-6.6-5.2c-0.6-3.4,2-4.9,4.9-5.8
	c3.4-1.1,6.9-0.9,10.2,0.5c3.7,1.6,4.1,4.4,0.9,6.7C94.4,163.3,91.1,164.5,87.8,165.1z"/>
<path id="XMLID_263_" style="fill:#EEBF98;" d="M314,127c1.8-0.1,3.7-0.2,5.3,1c1.6,1.1,2.7,2.3,2.7,4.4c0,2.3-1.3,3.6-3.1,4.6
	c-1.7,0.9-3.5,1.4-5.3,0.9c-3.7-0.9-8.4-0.8-9.5-5.7C303.5,129.3,308.2,127,314,127z"/>
<path id="XMLID_262_" style="fill:#BA836D;" d="M236.7,195.5c2.9-8,5.8-16,8.8-23.9c0.9-2.4,3.2-1.6,4.7-1.3c1.7,0.4,1.8,2,1.1,3.6
	C247.8,182,242.4,188.8,236.7,195.5z"/>
<path id="XMLID_261_" style="fill:#BA836D;" d="M226,155.2c0,0.5-0.1,0.9-0.1,1.4c-0.8,0.7-1,1.6-0.8,2.6c-0.4,0.9-0.9,1.8-1.5,3.1
	c-1.8-3.6-3.6-6.7-5.1-10c-2.8-5.9-2.4-6.9,3.8-9.3c0.8-0.3,1.5-0.6,2.3-0.8C226.9,146.3,223.4,151.1,226,155.2z"/>
<path id="XMLID_260_" style="fill:#BA836D;" d="M220.2,187.1c-2-6.4-4-12.7-6-19.1c-0.5-1.5,0-3.1,1.7-3.7c2-0.7,4.2-0.1,5.5,1.3
	c0.9,1-0.2,2.5-1.4,3.2c-1.7,1-1.1,2.6-0.8,3.9C220.3,177.4,221,182.1,220.2,187.1z"/>
<path id="XMLID_259_" style="fill:#D9597B;" d="M95.8,126.3c-1.3,4.1-1.2,9.2-6.2,9.5c-4.4,0.3-5.9-3.9-7.4-7.5
	C86.8,127.7,91,127,95.8,126.3z"/>
<path id="XMLID_258_" style="fill:#D9597B;" d="M311,100.9c1.7,0.7,4.8-1.7,5.8,1.7c0.7,2.2-4.4,7.4-6.6,7.3c-1.9-0.1-6-5.2-6-7.4
	C304.3,101,304.3,101,311,100.9z"/>
<path id="XMLID_257_" style="fill:#D9597B;" d="M124.7,77.1c2.5-1.1,0.5-4.1,2.4-5.6c1.3-1,2.3-3.1,4-2.1c2.1,1.3,0.1,2.9-0.7,4.1
	c-1.8,2.6-2.8,4.6,2,4.4c1.2-0.1,3.2-0.8,3.7,1.3c0.3,1.5-0.8,2.6-1.9,3.2c-1.4,0.9-3,1-4.5-0.4c-1.5-1.5-3.2-3.7-4.6,0.1
	c-0.3-0.1-0.6-0.1-0.9,0c-0.8-0.5-0.9-1.2-0.8-2.1C124.1,79.3,124.9,78.4,124.7,77.1z"/>
<path id="XMLID_256_" style="fill:#EEBF98;" d="M161,164.4c2.6,3,4.9,5.5,8.3,7.3c-4.8,6.2-8-1.1-12.4-0.4
	C158.4,168.8,159.5,166.9,161,164.4z"/>
<path id="XMLID_255_" style="fill:#3A494C;" d="M226,155.2c-2.6-4.1,1-8.9-1.4-13c1.8-0.4,3.5-0.7,5.3-1.1
	C231,146.5,230.5,151.4,226,155.2z"/>
<path id="XMLID_254_" style="fill:#EEBF98;" d="M269,113.5c1-2.9,2.1-5.8,3-8.8c0.3-1.1,0.8-1.8,1.9-1.8c1.2,0,1.7,0.7,2.1,1.8
	C277.7,109.5,274.3,113.8,269,113.5z"/>
<path id="XMLID_253_" style="fill:#F9F9F8;" d="M302.1,72.3c5.8-3.5,10.8-2.3,16.3-0.9C313.1,74.1,308.2,75.1,302.1,72.3z"/>
<path id="XMLID_252_" style="fill:#F9F9F8;" d="M78.7,98.8c4.6-2.1,9.3-3,15.1-1.2C88.5,101.6,83.7,100.8,78.7,98.8z"/>
<path id="XMLID_251_" style="fill:#EEBF98;" d="M321.3,98.2c1.4-1.7,0-3.8,0.8-5.6c1.8,9.2,1.2,12.8-3.6,16.6
	C319.7,105.2,321.4,101.9,321.3,98.2z"/>
<path id="XMLID_250_" style="fill:#F9F9F8;" d="M99.6,176.2c-1.7-1.7-2.8-2.9-2.9-4.7c1.9-0.4,3.7-0.9,6.3-1.5
	C101.8,172.2,100.8,174.1,99.6,176.2z"/>
<path id="XMLID_249_" style="fill:#D9597B;" d="M237.1,146.7c-1.7-0.6-3.4-0.8-3.2-3.1c0.1-1.3,0-2.7,1.9-2.8c2-0.1,2.6,1.1,2.5,2.8
	C238.2,144.8,238.8,146.3,237.1,146.7z"/>
<path id="XMLID_248_" style="fill:#F9F9F8;" d="M204.5,104.5c1.4,3.7,2.4,6.3,3.3,8.8C205,111.4,203.4,109.1,204.5,104.5z"/>
<path id="XMLID_247_" style="fill:#D9597B;" d="M120.3,83c-0.5,0.6-1,1.2-1.7,1.7c-0.9,0.7-1.9,1.6-3,0.8c-0.5-0.4-0.6-1.5-0.6-2.2
	c0.1-1.5,1.5-1.5,2.6-1.6c0.8-0.1,1.6,0.1,2.4,0.1C120.1,82.2,120.2,82.6,120.3,83z"/>
<path id="XMLID_246_" style="fill:#F9F9F8;" d="M191.7,213.6c-1.5,1.7-3.1,3.4-5.3,4.2c-0.2,0.1-0.9-0.9-0.8-1
	c1.2-2.1,3.3-2.9,5.3-3.9C191.2,213.1,191.4,213.3,191.7,213.6z"/>
<path id="XMLID_245_" style="fill:#BA836D;" d="M124.7,77.1c0.2,1.3-0.6,2.1-1.4,2.9c-0.1-0.3-0.3-0.6-0.4-0.9
	c-0.4-1.1-2.8-1.5-1.5-3C122.6,74.8,123.3,77.5,124.7,77.1z"/>
<path id="XMLID_244_" style="fill:#BA836D;" d="M124.1,82.2c0.3-0.1,0.6-0.1,0.9,0c1.2,1.9,1,3.7-0.4,5.7
	C123,85.9,124.5,83.9,124.1,82.2z"/>
<path id="XMLID_243_" style="fill:#F9F9F8;" d="M190.9,212.8c0.5-0.7,1.1-2.1,1.9-1.4c0.9,0.8-0.5,1.5-1.1,2.2
	C191.4,213.3,191.2,213.1,190.9,212.8z"/>
<path id="XMLID_242_" style="fill:#BA836D;" d="M120.3,83c-0.1-0.4-0.2-0.8-0.3-1.3c0.3-0.1,0.7-0.3,0.8-0.2
	C121.2,82.2,121.1,82.8,120.3,83z"/>
<path id="XMLID_241_" style="fill:#3A494C;" d="M225,159.2c-0.2-1,0-1.9,0.8-2.6C226,157.6,225.9,158.5,225,159.2z"/>
<path id="XMLID_240_" style="fill:#1D1D1C;" d="M148.5,121.2c0,4.5-2.2,5.9-5.4,4c-2-1.2-3.1,0.3-4.4,1c-3.9,1.8-6.3,0.4-6.5-3.8
	c-0.1-1.2,0.8-1.8,1.4-2.5c0.7-0.8,1.7-0.6,2,0.2c1.5,3.2,3.4,1.7,5.2,0.6c1.8-1.1,3.7-1.3,5.7-0.9
	C147.8,120.1,148.3,120.9,148.5,121.2z"/>
<path id="XMLID_239_" style="fill:#1D1D1C;" d="M168.3,123.3c-1-0.3-1.7-0.7-2.5-0.7c-2,0-4.6-0.1-4-2.5c0.5-2.1,2.8-3.9,5.5-3
	c2.9,0.9,5.5,3.2,8.5,0.1c0.4-0.5,1.6,0,2,0.9c0.5,1.1-0.3,1.9-0.9,2.6C174.5,123.4,170.8,121.5,168.3,123.3z"/>
<path id="XMLID_238_" style="fill:#1D1D1C;" d="M249.4,106.7c-2-1.1-4.1-0.6-6.2,0c-1.6,0.5-3,0-3.1-2c-0.2-2.3,1.7-1.6,2.8-1.6
	c2.5-0.1,4.9-0.1,7.4,0.1c1.3,0.1,2.1,1,1.8,2.4C251.8,107.2,250.6,107,249.4,106.7z"/>
<path id="XMLID_237_" style="fill:#1D1D1C;" d="M219.6,106c-1.4-1.3-5.2,2.5-5.2-1.5c0-2.5,3.9-2.1,6.3-2.3c0.8-0.1,1.6,0.3,2.4,0.5
	c1.3,0.3,3.4,0,2.9,2.3c-0.4,1.9-1.9,1.2-3.2,1C221.9,105.9,220.8,106,219.6,106z"/>
</svg>
